%!PS-Adobe-2.0 EPSF-2.0
%%BoundingBox:  0 0 567 384
%%Title: Tile0_Tile0/Distribution_Tile0_eta_11.eps: c1_n2
%%Creator: ROOT Version 6.22/08
%%CreationDate: Tue Aug  3 22:33:30 2021
%%DocumentNeededResources: ProcSet (FontSetInit)
%%EndComments
%%BeginProlog
80 dict begin
/s {stroke} def /l {lineto} def /m {moveto} def /t {translate} def
/r {rotate} def /rl {roll}  def /R {repeat} def
/d {rlineto} def /rm {rmoveto} def /gr {grestore} def /f {eofill} def
/c {setrgbcolor} def /black {0 setgray} def /sd {setdash} def
/cl {closepath} def /sf {scalefont setfont} def /lw {setlinewidth} def
/box {m dup 0 exch d exch 0 d 0 exch neg d cl} def
/NC{systemdict begin initclip end}def/C{NC box clip newpath}def
/bl {box s} def /bf {gsave box gsave f grestore 1 lw [] 0 sd s grestore} def /Y { 0 exch d} def /X { 0 d} def 
/K {{pop pop 0 moveto} exch kshow} bind def
/ita {/ang 15 def gsave [1 0 ang dup sin exch cos div 1 0 0] concat} def 
/mp {newpath /y exch def /x exch def} def
/side {[w .77 mul w .23 mul] .385 w mul sd w 0 l currentpoint t -144 r} def
/mr {mp x y w2 0 360 arc} def /m24 {mr s} def /m20 {mr f} def
/mb {mp x y w2 add m w2 neg 0 d 0 w neg d w 0 d 0 w d cl} def
/mt {mp x y w2 add m w2 neg w neg d w 0 d cl} def
/w4 {w 4 div} def
/w6 {w 6 div} def
/w8 {w 8 div} def
/m21 {mb f} def /m25 {mb s} def /m22 {mt f} def /m26{mt s} def
/m23 {mp x y w2 sub m w2 w d w neg 0 d cl f} def
/m27 {mp x y w2 add m w3 neg w2 neg d w3 w2 neg d w3 w2 d cl s} def
/m28 {mp x w2 sub y w2 sub w3 add m w3 0 d  0 w3 neg d w3 0 d 0 w3 d w3 0 d  0 w3 d w3 neg 0 d 0 w3 d w3 neg 0 d 0 w3 neg d w3 neg 0 d cl s } def
/m29 {mp gsave x w2 sub y w2 add w3 sub m currentpoint t 4 {side} repeat cl fill gr} def
/m30 {mp gsave x w2 sub y w2 add w3 sub m currentpoint t 4 {side} repeat cl s gr} def
/m31 {mp x y w2 sub m 0 w d x w2 sub y m w 0 d x w2 .707 mul sub y w2 .707 mul add m w 1.44 div w 1.44 div neg d x w2 .707 mul sub y w2 .707 mul sub m w 1.44 div w 1.44 div d s} def
/m32 {mp x y w2 sub m w2 w d w neg 0 d cl s} def
/m33 {mp x y w2 add m w3 neg w2 neg d w3 w2 neg d w3 w2 d cl f} def
/m34 {mp x w2 sub y w2 sub w3 add m w3 0 d  0 w3 neg d w3 0 d 0 w3 d w3 0 d  0 w3 d w3 neg 0 d 0 w3 d w3 neg 0 d 0 w3 neg d w3 neg 0 d cl f } def
/m35 {mp x y w2 add m w2 neg w2 neg d w2 w2 neg d w2 w2 d w2 neg w2 d x y w2 sub m 0 w d x w2 sub y m w 0 d s} def
/m36 {mb x w2 sub y w2 add m w w neg d x w2 sub y w2 sub m w w d s} def
/m37 {mp x y m w4 neg w2 d w4 neg w2 neg d w2 0 d  w4 neg w2 neg d w2 0 d w4 neg w2 d w2 0 d w4 neg w2 d w4 neg w2 neg d cl s} def
/m38 {mp x w4 sub y w2 add m w4 neg w4 neg d 0 w2 neg d w4 w4 neg d w2 0 d w4 w4 d 0 w2 d w4 neg w4 d w2 neg 0 d x y w2 sub m 0 w d x w2 sub y m w 0 d cl s} def
/m39 {mp x y m w4 neg w2 d w4 neg w2 neg d w2 0 d  w4 neg w2 neg d w2 0 d w4 neg w2 d w2 0 d w4 neg w2 d w4 neg w2 neg d cl f} def
/m40 {mp x y m w4 w2 d w4 w4 neg d w2 neg w4 neg d w2 w4 neg d w4 neg w4 neg d w4 neg w2 d w4 neg w2 neg d w4 neg w4 d w2 w4 d w2 neg w4 d w4 w4 d w4 w2 neg d cl s} def
/m41 {mp x y m w4 w2 d w4 w4 neg d w2 neg w4 neg d w2 w4 neg d w4 neg w4 neg d w4 neg w2 d w4 neg w2 neg d w4 neg w4 d w2 w4 d w2 neg w4 d w4 w4 d w4 w2 neg d cl f} def
/m42 {mp x y w2 add m w8 neg w2 -3 4 div mul d w2 -3 4 div mul w8 neg d w2 3 4 div mul w8 neg d w8 w2 -3 4 div mul d w8 w2 3 4 div mul d w2 3 4 div mul w8 d w2 -3 4 div mul w8 d w8 neg w2 3 4 div mul d cl s} def
/m43 {mp x y w2 add m w8 neg w2 -3 4 div mul d w2 -3 4 div mul w8 neg d w2 3 4 div mul w8 neg d w8 w2 -3 4 div mul d w8 w2 3 4 div mul d w2 3 4 div mul w8 d w2 -3 4 div mul w8 d w8 neg w2 3 4 div mul d cl f} def
/m44 {mp x y m w6 neg w2 d w2 2 3 div mul 0 d w6 neg w2 neg d w2 w6 d 0 w2 -2 3 div mul d w2 neg w6 d w6 w2 neg d w2 -2 3 div mul 0 d w6 w2 d w2 neg w6 neg d 0 w2 2 3 div mul d w2 w6 neg d cl s} def
/m45 {mp x y m w6 neg w2 d w2 2 3 div mul 0 d w6 neg w2 neg d w2 w6 d 0 w2 -2 3 div mul d w2 neg w6 d w6 w2 neg d w2 -2 3 div mul 0 d w6 w2 d w2 neg w6 neg d 0 w2 2 3 div mul d w2 w6 neg d cl f} def
/m46 {mp x y w4 add m w4 neg w4 d w4 neg w4 neg d  w4 w4 neg d w4 neg w4 neg d w4 w4 neg d w4 w4 d w4 w4 neg d w4 w4 d w4 neg w4 d w4 w4 d w4 neg w4 d w4 neg w4 neg d cl s} def
/m47 {mp x y w4 add m w4 neg w4 d w4 neg w4 neg d w4 w4 neg d w4 neg w4 neg d  w4 w4 neg d w4 w4 d w4 w4 neg d w4 w4 d w4 neg w4 d w4 w4 d w4 neg w4 d w4 neg w4 neg d cl f} def
/m48 {mp x y w4 add m w4 neg w4 d w4 neg w4 neg d w4 w4 neg d  w4 neg w4 neg d w4 w4 neg d w4 w4 d w4 w4 neg d w4 w4 d w4 neg w4 d w4 w4 d w4 neg w4 d w4 neg w4 neg d  w4 w4 neg d w4 neg w4 neg d w4 neg w4 d w4 w4 d cl f} def
/m49 {mp x w2 sub w3 add y w2 sub w3 add m  0 w3 neg d w3 0 d 0 w3 d w3 0 d 0 w3 d w3 neg 0 d 0 w3 d w3 neg 0 d 0 w3 neg d w3 neg 0 d 0 w3 neg d w3 0 d 0 w3 d w3 0 d 0 w3 neg d w3 neg 0 d cl f } def
/m2 {mp x y w2 sub m 0 w d x w2 sub y m w 0 d s} def
/m5 {mp x w2 .707 mul sub y w2 .707 mul sub m w 1.44 div w 1.44 div d x w2 .707 mul sub y w2 .707 mul add m w 1.44 div w 1.44 div neg d s} def
%%IncludeResource: ProcSet (FontSetInit)
%%IncludeResource: font Times-Roman
%%IncludeResource: font Times-Italic
%%IncludeResource: font Times-Bold
%%IncludeResource: font Times-BoldItalic
%%IncludeResource: font Helvetica
%%IncludeResource: font Helvetica-Oblique
%%IncludeResource: font Helvetica-Bold
%%IncludeResource: font Helvetica-BoldOblique
%%IncludeResource: font Courier
%%IncludeResource: font Courier-Oblique
%%IncludeResource: font Courier-Bold
%%IncludeResource: font Courier-BoldOblique
%%IncludeResource: font Symbol
%%IncludeResource: font ZapfDingbats
/reEncode {exch findfont dup length dict begin {1 index /FID eq  {pop pop} {def} ifelse } forall /Encoding exch def currentdict end dup /FontName get exch definefont pop } def [/Times-Bold /Times-Italic /Times-BoldItalic /Helvetica /Helvetica-Oblique
 /Helvetica-Bold /Helvetica-BoldOblique /Courier /Courier-Oblique /Courier-Bold /Courier-BoldOblique /Times-Roman /AvantGarde-Book /AvantGarde-BookOblique /AvantGarde-Demi /AvantGarde-DemiOblique /Bookman-Demi /Bookman-DemiItalic /Bookman-Light
 /Bookman-LightItalic /Helvetica-Narrow /Helvetica-Narrow-Bold /Helvetica-Narrow-BoldOblique /Helvetica-Narrow-Oblique /NewCenturySchlbk-Roman /NewCenturySchlbk-Bold /NewCenturySchlbk-BoldItalic /NewCenturySchlbk-Italic /Palatino-Bold
 /Palatino-BoldItalic /Palatino-Italic /Palatino-Roman ] {ISOLatin1Encoding reEncode } forall
%%EndProlog
%%BeginSetup
%%EndSetup
newpath  gsave  .25 .25 scale  gsave  0 0 t 1 0 0 c[  ] 0 sd 3 lw 1 1 1 c 2268 1538 0 0 bf black 1 1 1 c 1905 1276 295 231 bf black 1905 1276 295 231 bl 1 1 1 c 1905 1276 295 231 bf black 1905 1276 295 231 bl 0 0 1 c 6 lw 1 1 1 c 0 0 1 c 3 lw /w 31
 def /w2 {w 2 div} def /w3 {w 3 div} def 302 234 m20 6 lw 3 lw 315 234 m20 6 lw 3 lw 329 233 m20 6 lw 3 lw 342 232 m20 6 lw 3 lw 356 234 m20 6 lw 3 lw 370 236 m20 6 lw 3 lw 383 236 m20 6 lw 3 lw 397 239 m20 6 lw 3 lw 410 241 m20 6 lw 3 lw 424 238 m20
 6 lw 3 lw 438 245 m20 6 lw 3 lw 451 247 m20 6 lw 3 lw 465 251 m20 6 lw 3 lw 478 256 m20 6 lw 3 lw 492 259 m20 6 lw 3 lw 506 275 m20 6 lw 3 lw 519 300 m20 6 lw 3 lw 533 324 m20 6 lw 3 lw 547 391 m20 6 lw 560 594 m 1 Y s 560 621 m s 3 lw 560 608 m20 6
 lw 574 642 m 1 Y s 574 669 m 1 Y s 3 lw 574 656 m20 6 lw 3 lw 587 535 m20 6 lw 3 lw 601 462 m20 6 lw 3 lw 615 441 m20 6 lw 3 lw 628 428 m20 6 lw 3 lw 642 439 m20 6 lw 3 lw 655 404 m20 6 lw 3 lw 669 404 m20 6 lw 3 lw 683 404 m20 6 lw 3 lw 696 376 m20
 6 lw 3 lw 710 382 m20 6 lw 3 lw 723 381 m20 6 lw 3 lw 737 354 m20 6 lw 3 lw 751 337 m20 6 lw 3 lw 764 339 m20 6 lw 3 lw 778 351 m20 6 lw 3 lw 791 331 m20 6 lw 3 lw 805 316 m20 6 lw 3 lw 819 316 m20 6 lw 3 lw 832 315 m20 6 lw 3 lw 846 306 m20 6 lw 3
 lw 859 303 m20 6 lw 3 lw 873 305 m20 6 lw 3 lw 887 277 m20 6 lw 3 lw 900 278 m20 6 lw 3 lw 914 291 m20 6 lw 3 lw 927 276 m20 6 lw 3 lw 941 285 m20 6 lw 3 lw 955 266 m20 6 lw 3 lw 968 268 m20 6 lw 3 lw 982 262 m20 6 lw 3 lw 996 265 m20 6 lw 3 lw 1009
 262 m20 6 lw 3 lw 1023 261 m20 6 lw 3 lw 1036 255 m20 6 lw 3 lw 1050 259 m20 6 lw 3 lw 1064 249 m20 6 lw 3 lw 1077 253 m20 6 lw 3 lw 1091 247 m20 6 lw 3 lw 1104 246 m20 6 lw 3 lw 1118 245 m20 6 lw 3 lw 1132 253 m20 6 lw 3 lw 1145 248 m20 6 lw 3 lw
 1159 243 m20 6 lw 3 lw 1172 247 m20 6 lw 3 lw 1186 244 m20 6 lw 3 lw 1200 240 m20 6 lw 3 lw 1213 245 m20 6 lw 3 lw 1227 237 m20 6 lw 3 lw 1240 242 m20 6 lw 3 lw 1254 242 m20 6 lw 3 lw 1268 241 m20 6 lw 3 lw 1281 236 m20 6 lw 3 lw 1295 239 m20 6 lw 3
 lw 1308 239 m20 6 lw 3 lw 1322 236 m20 6 lw 3 lw 1336 234 m20 6 lw 3 lw 1349 237 m20 6 lw 3 lw 1363 236 m20 6 lw 3 lw 1377 234 m20 6 lw 3 lw 1390 237 m20 6 lw 3 lw 1404 236 m20 6 lw 3 lw 1417 233 m20 6 lw 3 lw 1431 233 m20 6 lw 3 lw 1445 234 m20 6
 lw 3 lw 1458 233 m20 6 lw 3 lw 1472 231 m20 6 lw 3 lw 1485 235 m20 6 lw 3 lw 1499 234 m20 6 lw 3 lw 1513 234 m20 6 lw 3 lw 1526 233 m20 6 lw 3 lw 1540 232 m20 6 lw 3 lw 1553 234 m20 6 lw 3 lw 1567 232 m20 6 lw 3 lw 1581 236 m20 6 lw 3 lw 1594 233
 m20 6 lw 3 lw 1608 233 m20 6 lw 3 lw 1621 234 m20 6 lw 3 lw 1635 231 m20 6 lw 3 lw 1649 233 m20 6 lw 3 lw 1662 232 m20 6 lw 3 lw 1676 231 m20 6 lw 3 lw 1689 231 m20 6 lw 3 lw 1703 232 m20 6 lw 3 lw 1717 231 m20 6 lw 3 lw 1730 231 m20 6 lw 3 lw 1744
 231 m20 6 lw 3 lw 1757 231 m20 6 lw 3 lw 1771 232 m20 6 lw 3 lw 1785 233 m20 6 lw 3 lw 1798 231 m20 6 lw 3 lw 1812 232 m20 6 lw 3 lw 1826 232 m20 6 lw 3 lw 1839 232 m20 6 lw 3 lw 1853 231 m20 6 lw 3 lw 1866 232 m20 6 lw 3 lw 1880 231 m20 6 lw 3 lw
 1894 231 m20 6 lw 3 lw 1907 232 m20 6 lw 3 lw 1921 231 m20 6 lw 3 lw 1934 231 m20 6 lw 3 lw 1948 231 m20 6 lw 3 lw 1962 231 m20 6 lw 3 lw 1975 231 m20 6 lw 3 lw 1989 231 m20 6 lw 3 lw 2002 231 m20 6 lw 3 lw 2016 231 m20 6 lw 3 lw 2030 231 m20 6 lw 3
 lw 2043 231 m20 6 lw 3 lw 2057 231 m20 6 lw 3 lw 2070 231 m20 6 lw 3 lw 2084 231 m20 6 lw 3 lw 2098 231 m20 6 lw 3 lw 2111 231 m20 6 lw 3 lw 2125 231 m20 6 lw 3 lw 2138 231 m20 6 lw 3 lw 2152 231 m20 6 lw 3 lw 2166 231 m20 6 lw 3 lw 2179 231 m20 6
 lw 3 lw 2193 231 m20 6 lw black 3 lw 295 231 m 1905 X s 295 269 m -38 Y s 349 250 m -19 Y s 404 250 m -19 Y s 458 250 m -19 Y s 513 250 m -19 Y s 567 269 m -38 Y s 621 250 m -19 Y s 676 250 m -19 Y s 730 250 m -19 Y s 785 250 m -19 Y s 839 269 m -38
 Y s 893 250 m -19 Y s 948 250 m -19 Y s 1002 250 m -19 Y s 1057 250 m -19 Y s 1111 269 m -38 Y s 1166 250 m -19 Y s 1220 250 m -19 Y s 1274 250 m -19 Y s 1329 250 m -19 Y s 1383 269 m -38 Y s 1438 250 m -19 Y s 1492 250 m -19 Y s 1547 250 m -19 Y s
 1601 250 m -19 Y s 1655 269 m -38 Y s 1710 250 m -19 Y s 1764 250 m -19 Y s 1819 250 m -19 Y s 1873 250 m -19 Y s 1928 269 m -38 Y s 1982 250 m -19 Y s 2036 250 m -19 Y s 2091 250 m -19 Y s 2145 250 m -19 Y s 2200 269 m -38 Y s
 gsave  2268 1538 0 0 C 267.173 162.911 t 0 r /Helvetica findfont 71.6807 sf 0 0 m (0.1) show NC gr 
 gsave  2268 1538 0 0 C 231.333 162.911 t 0 r /Symbol findfont 71.6807 sf 0 0 m (-) show NC gr 
 gsave  2268 1538 0 0 C 547.38 162.911 t 0 r /Helvetica findfont 71.6807 sf 0 0 m (0) show NC gr 
 gsave  2268 1538 0 0 C 795.004 162.911 t 0 r /Helvetica findfont 71.6807 sf 0 0 m (0.1) show NC gr 
 gsave  2268 1538 0 0 C 1062.18 162.911 t 0 r /Helvetica findfont 71.6807 sf 0 0 m (0.2) show NC gr 
 gsave  2268 1538 0 0 C 1332.61 162.911 t 0 r /Helvetica findfont 71.6807 sf 0 0 m (0.3) show NC gr 
 gsave  2268 1538 0 0 C 1606.3 162.911 t 0 r /Helvetica findfont 71.6807 sf 0 0 m (0.4) show NC gr 
 gsave  2268 1538 0 0 C 1876.73 162.911 t 0 r /Helvetica findfont 71.6807 sf 0 0 m (0.5) show NC gr 
 gsave  2268 1538 0 0 C 2150.42 162.911 t 0 r /Helvetica findfont 71.6807 sf 0 0 m (0.6) show NC gr 
 gsave  2268 1538 0 0 C 2095.03 19.5493 t 0 r /Helvetica findfont 48.8732 sf 0 0 m (Tile0) show NC gr 
 gsave  2268 1538 0 0 C 2075.48 42.3568 t 0 r /Helvetica findfont 71.6807 sf 0 0 m (f) show NC gr  295 1507 m 1905 X s 295 1468 m 39 Y s 349 1488 m 19 Y s 404 1488 m 19 Y s 458 1488 m 19 Y s 513 1488 m 19 Y s 567 1468 m 39 Y s 621 1488 m 19 Y s 676
 1488 m 19 Y s 730 1488 m 19 Y s 785 1488 m 19 Y s 839 1468 m 39 Y s 893 1488 m 19 Y s 948 1488 m 19 Y s 1002 1488 m 19 Y s 1057 1488 m 19 Y s 1111 1468 m 39 Y s 1166 1488 m 19 Y s 1220 1488 m 19 Y s 1274 1488 m 19 Y s 1329 1488 m 19 Y s 1383 1468 m
 39 Y s 1438 1488 m 19 Y s 1492 1488 m 19 Y s 1547 1488 m 19 Y s 1601 1488 m 19 Y s 1655 1468 m 39 Y s 1710 1488 m 19 Y s 1764 1488 m 19 Y s 1819 1488 m 19 Y s 1873 1488 m 19 Y s 1928 1468 m 39 Y s 1982 1488 m 19 Y s 2036 1488 m 19 Y s 2091 1488 m 19
 Y s 2145 1488 m 19 Y s 2200 1468 m 39 Y s 295 231 m 1276 Y s 351 231 m -56 X s 323 257 m -28 X s 323 284 m -28 X s 323 311 m -28 X s 351 337 m -56 X s 323 364 m -28 X s 323 391 m -28 X s 323 417 m -28 X s 351 444 m -56 X s 323 471 m -28 X s 323 497
 m -28 X s 323 524 m -28 X s 351 550 m -56 X s 323 577 m -28 X s 323 604 m -28 X s 323 630 m -28 X s 351 657 m -56 X s 323 684 m -28 X s 323 710 m -28 X s 323 737 m -28 X s 351 764 m -56 X s 323 790 m -28 X s 323 817 m -28 X s 323 844 m -28 X s 351
 870 m -56 X s 323 897 m -28 X s 323 924 m -28 X s 323 950 m -28 X s 351 977 m -56 X s 323 1003 m -28 X s 323 1030 m -28 X s 323 1057 m -28 X s 351 1083 m -56 X s 323 1110 m -28 X s 323 1137 m -28 X s 323 1163 m -28 X s 351 1190 m -56 X s 323 1217 m
 -28 X s 323 1243 m -28 X s 323 1270 m -28 X s 351 1297 m -56 X s 323 1323 m -28 X s 323 1350 m -28 X s 323 1377 m -28 X s 351 1403 m -56 X s 351 1403 m -56 X s 323 1430 m -28 X s 323 1456 m -28 X s 323 1483 m -28 X s
 gsave  2268 1538 0 0 C 244.366 205.267 t 0 r /Helvetica findfont 71.6807 sf 0 0 m (0) show NC gr 
 gsave  2268 1538 0 0 C 146.62 312.788 t 0 r /Helvetica findfont 71.6807 sf 0 0 m (0.02) show NC gr 
 gsave  2268 1538 0 0 C 146.62 420.31 t 0 r /Helvetica findfont 71.6807 sf 0 0 m (0.04) show NC gr 
 gsave  2268 1538 0 0 C 146.62 524.572 t 0 r /Helvetica findfont 71.6807 sf 0 0 m (0.06) show NC gr 
 gsave  2268 1538 0 0 C 146.62 632.093 t 0 r /Helvetica findfont 71.6807 sf 0 0 m (0.08) show NC gr 
 gsave  2268 1538 0 0 C 198.751 739.614 t 0 r /Helvetica findfont 71.6807 sf 0 0 m (0.1) show NC gr 
 gsave  2268 1538 0 0 C 146.62 847.135 t 0 r /Helvetica findfont 71.6807 sf 0 0 m (0.12) show NC gr 
 gsave  2268 1538 0 0 C 146.62 951.398 t 0 r /Helvetica findfont 71.6807 sf 0 0 m (0.14) show NC gr 
 gsave  2268 1538 0 0 C 146.62 1058.92 t 0 r /Helvetica findfont 71.6807 sf 0 0 m (0.16) show NC gr 
 gsave  2268 1538 0 0 C 146.62 1166.44 t 0 r /Helvetica findfont 71.6807 sf 0 0 m (0.18) show NC gr 
 gsave  2268 1538 0 0 C 188.976 1270.7 t 0 r /Helvetica findfont 71.6807 sf 0 0 m (0.2) show NC gr 
 gsave  2268 1538 0 0 C 146.62 1378.22 t 0 r /Helvetica findfont 71.6807 sf 0 0 m (0.22) show NC gr 
 gsave  2268 1538 0 0 C 156.394 925.333 t 90 r /Helvetica findfont 71.6807 sf 0 0 m (Normalized entries) show NC gr  2200 231 m 1276 Y s 2143 231 m 57 X s 2171 257 m 29 X s 2171 284 m 29 X s 2171 311 m 29 X s 2143 337 m 57 X s 2171 364 m 29 X s 2171
 391 m 29 X s 2171 417 m 29 X s 2143 444 m 57 X s 2171 471 m 29 X s 2171 497 m 29 X s 2171 524 m 29 X s 2143 550 m 57 X s 2171 577 m 29 X s 2171 604 m 29 X s 2171 630 m 29 X s 2143 657 m 57 X s 2171 684 m 29 X s 2171 710 m 29 X s 2171 737 m 29 X s
 2143 764 m 57 X s 2171 790 m 29 X s 2171 817 m 29 X s 2171 844 m 29 X s 2143 870 m 57 X s 2171 897 m 29 X s 2171 924 m 29 X s 2171 950 m 29 X s 2143 977 m 57 X s 2171 1003 m 29 X s 2171 1030 m 29 X s 2171 1057 m 29 X s 2143 1083 m 57 X s 2171 1110 m
 29 X s 2171 1137 m 29 X s 2171 1163 m 29 X s 2143 1190 m 57 X s 2171 1217 m 29 X s 2171 1243 m 29 X s 2171 1270 m 29 X s 2143 1297 m 57 X s 2171 1323 m 29 X s 2171 1350 m 29 X s 2171 1377 m 29 X s 2143 1403 m 57 X s 2143 1403 m 57 X s 2171 1430 m 29
 X s 2171 1456 m 29 X s 2171 1483 m 29 X s 1 0 0 c 6 lw 1 1 1 c 1 0 0 c 3 lw 329 231 m20 6 lw 3 lw 342 231 m20 6 lw 3 lw 370 231 m20 6 lw 3 lw 383 231 m20 6 lw 3 lw 397 231 m20 6 lw 3 lw 410 231 m20 6 lw 3 lw 424 231 m20 6 lw 3 lw 438 231 m20 6 lw 3
 lw 451 231 m20 6 lw 3 lw 465 231 m20 6 lw 3 lw 478 232 m20 6 lw 3 lw 492 234 m20 6 lw 3 lw 506 236 m20 6 lw 3 lw 519 239 m20 6 lw 3 lw 533 247 m20 6 lw 3 lw 547 270 m20 6 lw 3 lw 560 356 m20 6 lw 3 lw 574 453 m20 6 lw 3 lw 587 461 m20 6 lw 3 lw 601
 493 m20 6 lw 3 lw 615 511 m20 6 lw 3 lw 628 512 m20 6 lw 3 lw 642 510 m20 6 lw 3 lw 655 507 m20 6 lw 3 lw 669 506 m20 6 lw 3 lw 683 493 m20 6 lw 3 lw 696 468 m20 6 lw 3 lw 710 456 m20 6 lw 3 lw 723 439 m20 6 lw 3 lw 737 425 m20 6 lw 3 lw 751 404 m20
 6 lw 3 lw 764 391 m20 6 lw 3 lw 778 379 m20 6 lw 3 lw 791 360 m20 6 lw 3 lw 805 351 m20 6 lw 3 lw 819 335 m20 6 lw 3 lw 832 324 m20 6 lw 3 lw 846 309 m20 6 lw 3 lw 859 304 m20 6 lw 3 lw 873 303 m20 6 lw 3 lw 887 295 m20 6 lw 3 lw 900 289 m20 6 lw 3
 lw 914 284 m20 6 lw 3 lw 927 277 m20 6 lw 3 lw 941 275 m20 6 lw 3 lw 955 269 m20 6 lw 3 lw 968 264 m20 6 lw 3 lw 982 264 m20 6 lw 3 lw 996 258 m20 6 lw 3 lw 1009 258 m20 6 lw 3 lw 1023 255 m20 6 lw 3 lw 1036 255 m20 6 lw 3 lw 1050 254 m20 6 lw 3 lw
 1064 248 m20 6 lw 3 lw 1077 247 m20 6 lw 3 lw 1091 246 m20 6 lw 3 lw 1104 245 m20 6 lw 3 lw 1118 244 m20 6 lw 3 lw 1132 243 m20 6 lw 3 lw 1145 243 m20 6 lw 3 lw 1159 242 m20 6 lw 3 lw 1172 240 m20 6 lw 3 lw 1186 240 m20 6 lw 3 lw 1200 239 m20 6 lw 3
 lw 1213 237 m20 6 lw 3 lw 1227 240 m20 6 lw 3 lw 1240 236 m20 6 lw 3 lw 1254 237 m20 6 lw 3 lw 1268 237 m20 6 lw 3 lw 1281 235 m20 6 lw 3 lw 1295 235 m20 6 lw 3 lw 1308 236 m20 6 lw 3 lw 1322 235 m20 6 lw 3 lw 1336 233 m20 6 lw 3 lw 1349 233 m20 6
 lw 3 lw 1363 235 m20 6 lw 3 lw 1377 234 m20 6 lw 3 lw 1390 234 m20 6 lw 3 lw 1404 234 m20 6 lw 3 lw 1417 234 m20 6 lw 3 lw 1431 232 m20 6 lw 3 lw 1445 233 m20 6 lw 3 lw 1458 232 m20 6 lw 3 lw 1472 232 m20 6 lw 3 lw 1485 233 m20 6 lw 3 lw 1499 232
 m20 6 lw 3 lw 1513 232 m20 6 lw 3 lw 1526 232 m20 6 lw 3 lw 1540 231 m20 6 lw 3 lw 1553 232 m20 6 lw 3 lw 1567 232 m20 6 lw 3 lw 1581 232 m20 6 lw 3 lw 1594 232 m20 6 lw 3 lw 1608 232 m20 6 lw 3 lw 1621 231 m20 6 lw 3 lw 1635 231 m20 6 lw 3 lw 1649
 232 m20 6 lw 3 lw 1662 231 m20 6 lw 3 lw 1676 231 m20 6 lw 3 lw 1689 231 m20 6 lw 3 lw 1703 231 m20 6 lw 3 lw 1717 231 m20 6 lw 3 lw 1730 231 m20 6 lw 3 lw 1744 231 m20 6 lw 3 lw 1757 231 m20 6 lw 3 lw 1771 231 m20 6 lw 3 lw 1785 231 m20 6 lw 3 lw
 1798 231 m20 6 lw 3 lw 1812 231 m20 6 lw 3 lw 1826 231 m20 6 lw 3 lw 1839 231 m20 6 lw 3 lw 1853 231 m20 6 lw 3 lw 1866 231 m20 6 lw 3 lw 1880 231 m20 6 lw 3 lw 1894 231 m20 6 lw 3 lw 1907 231 m20 6 lw 3 lw 1921 231 m20 6 lw 3 lw 1934 231 m20 6 lw 3
 lw 1948 231 m20 6 lw 3 lw 1962 231 m20 6 lw 3 lw 1975 231 m20 6 lw 3 lw 1989 231 m20 6 lw 3 lw 2002 231 m20 6 lw 3 lw 2016 231 m20 6 lw 3 lw 2030 231 m20 6 lw 3 lw 2043 231 m20 6 lw 3 lw 2057 231 m20 6 lw 3 lw 2070 231 m20 6 lw 3 lw 2084 231 m20 6
 lw 3 lw 2098 231 m20 6 lw 3 lw 2125 231 m20 6 lw 3 lw 2152 231 m20 6 lw 3 lw 2166 231 m20 6 lw 3 lw 2179 231 m20 6 lw black 1 1 1 c black 3 lw 547 231 m20 6 lw 3 lw 560 236 m20 6 lw 3 lw 574 272 m20 6 lw 3 lw 587 315 m20 6 lw 3 lw 601 380 m20 6 lw 3
 lw 615 444 m20 6 lw 3 lw 628 493 m20 6 lw 3 lw 642 533 m20 6 lw 3 lw 655 555 m20 6 lw 3 lw 669 559 m20 6 lw 3 lw 683 560 m20 6 lw 3 lw 696 537 m20 6 lw 3 lw 710 513 m20 6 lw 3 lw 723 474 m20 6 lw 3 lw 737 456 m20 6 lw 3 lw 751 422 m20 6 lw 3 lw 764
 412 m20 6 lw 3 lw 778 393 m20 6 lw 3 lw 791 392 m20 6 lw 3 lw 805 375 m20 6 lw 3 lw 819 358 m20 6 lw 3 lw 832 353 m20 6 lw 3 lw 846 330 m20 6 lw 3 lw 859 325 m20 6 lw 3 lw 873 311 m20 6 lw 3 lw 887 304 m20 6 lw 3 lw 900 300 m20 6 lw 3 lw 914 287 m20
 6 lw 3 lw 927 295 m20 6 lw 3 lw 941 290 m20 6 lw 3 lw 955 281 m20 6 lw 3 lw 968 276 m20 6 lw 3 lw 982 266 m20 6 lw 3 lw 996 270 m20 6 lw 3 lw 1009 269 m20 6 lw 3 lw 1023 259 m20 6 lw 3 lw 1036 253 m20 6 lw 3 lw 1050 255 m20 6 lw 3 lw 1064 255 m20 6
 lw 3 lw 1077 251 m20 6 lw 3 lw 1091 248 m20 6 lw 3 lw 1104 254 m20 6 lw 3 lw 1118 243 m20 6 lw 3 lw 1132 249 m20 6 lw 3 lw 1145 243 m20 6 lw 3 lw 1159 242 m20 6 lw 3 lw 1172 242 m20 6 lw 3 lw 1186 238 m20 6 lw 3 lw 1200 240 m20 6 lw 3 lw 1213 239
 m20 6 lw 3 lw 1227 237 m20 6 lw 3 lw 1240 238 m20 6 lw 3 lw 1254 237 m20 6 lw 3 lw 1268 235 m20 6 lw 3 lw 1281 236 m20 6 lw 3 lw 1295 235 m20 6 lw 3 lw 1308 233 m20 6 lw 3 lw 1322 235 m20 6 lw 3 lw 1336 236 m20 6 lw 3 lw 1349 234 m20 6 lw 3 lw 1363
 233 m20 6 lw 3 lw 1377 232 m20 6 lw 3 lw 1390 233 m20 6 lw 3 lw 1404 233 m20 6 lw 3 lw 1417 235 m20 6 lw 3 lw 1431 232 m20 6 lw 3 lw 1445 232 m20 6 lw 3 lw 1458 233 m20 6 lw 3 lw 1472 232 m20 6 lw 3 lw 1485 233 m20 6 lw 3 lw 1499 232 m20 6 lw 3 lw
 1513 232 m20 6 lw 3 lw 1526 233 m20 6 lw 3 lw 1540 232 m20 6 lw 3 lw 1553 232 m20 6 lw 3 lw 1567 231 m20 6 lw 3 lw 1581 232 m20 6 lw 3 lw 1594 231 m20 6 lw 3 lw 1608 231 m20 6 lw 3 lw 1621 231 m20 6 lw 3 lw 1635 231 m20 6 lw 3 lw 1649 231 m20 6 lw 3
 lw 1662 231 m20 6 lw 3 lw 1676 232 m20 6 lw 3 lw 1689 231 m20 6 lw 3 lw 1703 231 m20 6 lw 3 lw 1717 231 m20 6 lw 3 lw 1730 231 m20 6 lw 3 lw 1744 231 m20 6 lw 3 lw 1757 231 m20 6 lw 3 lw 1771 231 m20 6 lw 3 lw 1785 231 m20 6 lw 3 lw 1812 231 m20 6
 lw 3 lw 1826 231 m20 6 lw 3 lw 1839 231 m20 6 lw 3 lw 1853 231 m20 6 lw 3 lw 1866 231 m20 6 lw 3 lw 1880 231 m20 6 lw 3 lw 1894 231 m20 6 lw 3 lw 1907 231 m20 6 lw 3 lw 1921 231 m20 6 lw 3 lw 1962 231 m20 6 lw 3 lw 1975 231 m20 6 lw 3 lw 1989 231
 m20 6 lw 3 lw 2002 231 m20 6 lw 3 lw 2043 231 m20 6 lw 3 lw 2057 231 m20 6 lw 3 lw 2111 231 m20 6 lw 3 lw 2179 231 m20 6 lw 0 0.6 0 c 1 1 1 c 0 0.6 0 c 3 lw 560 231 m20 6 lw 3 lw 574 262 m20 6 lw 3 lw 587 309 m20 6 lw 3 lw 601 373 m20 6 lw 3 lw 615
 450 m20 6 lw 3 lw 628 520 m20 6 lw 3 lw 642 569 m20 6 lw 3 lw 655 559 m20 6 lw 3 lw 669 562 m20 6 lw 3 lw 683 517 m20 6 lw 3 lw 696 497 m20 6 lw 3 lw 710 465 m20 6 lw 3 lw 723 446 m20 6 lw 3 lw 737 437 m20 6 lw 3 lw 751 414 m20 6 lw 3 lw 764 410 m20
 6 lw 3 lw 778 391 m20 6 lw 3 lw 791 386 m20 6 lw 3 lw 805 366 m20 6 lw 3 lw 819 360 m20 6 lw 3 lw 832 357 m20 6 lw 3 lw 846 342 m20 6 lw 3 lw 859 328 m20 6 lw 3 lw 873 322 m20 6 lw 3 lw 887 314 m20 6 lw 3 lw 900 307 m20 6 lw 3 lw 914 305 m20 6 lw 3
 lw 927 293 m20 6 lw 3 lw 941 291 m20 6 lw 3 lw 955 290 m20 6 lw 3 lw 968 284 m20 6 lw 3 lw 982 277 m20 6 lw 3 lw 996 276 m20 6 lw 3 lw 1009 271 m20 6 lw 3 lw 1023 266 m20 6 lw 3 lw 1036 261 m20 6 lw 3 lw 1050 257 m20 6 lw 3 lw 1064 254 m20 6 lw 3 lw
 1077 255 m20 6 lw 3 lw 1091 253 m20 6 lw 3 lw 1104 251 m20 6 lw 3 lw 1118 250 m20 6 lw 3 lw 1132 249 m20 6 lw 3 lw 1145 245 m20 6 lw 3 lw 1159 245 m20 6 lw 3 lw 1172 244 m20 6 lw 3 lw 1186 242 m20 6 lw 3 lw 1200 241 m20 6 lw 3 lw 1213 239 m20 6 lw 3
 lw 1227 239 m20 6 lw 3 lw 1240 239 m20 6 lw 3 lw 1254 238 m20 6 lw 3 lw 1268 238 m20 6 lw 3 lw 1281 236 m20 6 lw 3 lw 1295 237 m20 6 lw 3 lw 1308 237 m20 6 lw 3 lw 1322 236 m20 6 lw 3 lw 1336 235 m20 6 lw 3 lw 1349 234 m20 6 lw 3 lw 1363 234 m20 6
 lw 3 lw 1377 234 m20 6 lw 3 lw 1390 234 m20 6 lw 3 lw 1404 233 m20 6 lw 3 lw 1417 233 m20 6 lw 3 lw 1431 232 m20 6 lw 3 lw 1445 232 m20 6 lw 3 lw 1458 233 m20 6 lw 3 lw 1472 232 m20 6 lw 3 lw 1485 233 m20 6 lw 3 lw 1499 232 m20 6 lw 3 lw 1513 233
 m20 6 lw 3 lw 1526 231 m20 6 lw 3 lw 1540 232 m20 6 lw 3 lw 1553 231 m20 6 lw 3 lw 1567 232 m20 6 lw 3 lw 1581 231 m20 6 lw 3 lw 1594 231 m20 6 lw 3 lw 1608 231 m20 6 lw 3 lw 1621 231 m20 6 lw 3 lw 1635 231 m20 6 lw 3 lw 1649 231 m20 6 lw 3 lw 1662
 231 m20 6 lw 3 lw 1676 232 m20 6 lw 3 lw 1689 231 m20 6 lw 3 lw 1703 231 m20 6 lw 3 lw 1717 231 m20 6 lw 3 lw 1730 231 m20 6 lw 3 lw 1744 231 m20 6 lw 3 lw 1757 231 m20 6 lw 3 lw 1771 231 m20 6 lw 3 lw 1785 231 m20 6 lw 3 lw 1798 231 m20 6 lw 3 lw
 1812 231 m20 6 lw 3 lw 1826 231 m20 6 lw 3 lw 1839 231 m20 6 lw 3 lw 1853 231 m20 6 lw 3 lw 1894 231 m20 6 lw 3 lw 1934 231 m20 6 lw 3 lw 1948 231 m20 6 lw 3 lw 1975 231 m20 6 lw 3 lw 2002 231 m20 6 lw 3 lw 2030 231 m20 6 lw 3 lw 2057 231 m20 6 lw 3
 lw 2166 231 m20 6 lw black
 gsave  2268 1538 0 0 C 1648.66 1394.52 t 0 r /Helvetica-Bold findfont 48.8732 sf 0 0 m ( < 40 GeV) show NC gr 
 gsave  2268 1538 0 0 C 1573.72 1420.58 t 0 r /Helvetica-Bold findfont 32.5821 sf 0 0 m (truth) show NC gr 
 gsave  2268 1538 0 0 C 1573.72 1368.45 t 0 r /Helvetica-Bold findfont 32.5821 sf 0 0 m (T) show NC gr 
 gsave  2268 1538 0 0 C 1433.61 1394.52 t 0 r /Helvetica-Bold findfont 48.8732 sf 0 0 m (30 < p) show NC gr  0 0 1 c 1275 1413 m 131 X s 3 lw 1341 1413 m20 6 lw black
 gsave  2268 1538 0 0 C 1648.66 1296.77 t 0 r /Helvetica-Bold findfont 48.8732 sf 0 0 m ( < 100 GeV) show NC gr 
 gsave  2268 1538 0 0 C 1573.72 1322.83 t 0 r /Helvetica-Bold findfont 32.5821 sf 0 0 m (truth) show NC gr 
 gsave  2268 1538 0 0 C 1573.72 1270.7 t 0 r /Helvetica-Bold findfont 32.5821 sf 0 0 m (T) show NC gr 
 gsave  2268 1538 0 0 C 1433.61 1296.77 t 0 r /Helvetica-Bold findfont 48.8732 sf 0 0 m (80 < p) show NC gr  1 0 0 c 1275 1317 m 131 X s 3 lw 1341 1317 m20 6 lw black
 gsave  2268 1538 0 0 C 1674.72 1202.28 t 0 r /Helvetica-Bold findfont 48.8732 sf 0 0 m ( < 400 GeV) show NC gr 
 gsave  2268 1538 0 0 C 1599.78 1228.35 t 0 r /Helvetica-Bold findfont 32.5821 sf 0 0 m (truth) show NC gr 
 gsave  2268 1538 0 0 C 1599.78 1176.21 t 0 r /Helvetica-Bold findfont 32.5821 sf 0 0 m (T) show NC gr 
 gsave  2268 1538 0 0 C 1433.61 1202.28 t 0 r /Helvetica-Bold findfont 48.8732 sf 0 0 m (350 < p) show NC gr  1275 1221 m 131 X s 3 lw 1341 1221 m20 6 lw
 gsave  2268 1538 0 0 C 1704.05 1104.53 t 0 r /Helvetica-Bold findfont 48.8732 sf 0 0 m ( < 1200 GeV) show NC gr 
 gsave  2268 1538 0 0 C 1629.11 1130.6 t 0 r /Helvetica-Bold findfont 32.5821 sf 0 0 m (truth) show NC gr 
 gsave  2268 1538 0 0 C 1629.11 1078.47 t 0 r /Helvetica-Bold findfont 32.5821 sf 0 0 m (T) show NC gr 
 gsave  2268 1538 0 0 C 1433.61 1104.53 t 0 r /Helvetica-Bold findfont 48.8732 sf 0 0 m (1000 < p) show NC gr  0 0.6 0 c 1275 1125 m 131 X s 3 lw 1341 1125 m20 6 lw black
 gsave  2268 1538 0 0 C 384.469 1417.32 t 0 r /Helvetica-BoldOblique findfont 61.9061 sf 0 0 m (ATLAS) show NC gr 
 gsave  2268 1538 0 0 C 632.093 1417.32 t 0 r /Helvetica findfont 58.6478 sf 0 0 m (Simulation Internal) show NC gr 
 gsave  2268 1538 0 0 C 746.131 1339.13 t 0 r /Helvetica findfont 58.6478 sf 0 0 m ( = 13 TeV) show NC gr 
 gsave  2268 1538 0 0 C 716.807 1339.13 t 0 r /Helvetica findfont 58.6478 sf 0 0 m (s) show NC gr  697 1372 m 7 -36 d s 3 lw 704 1336 m 6 52 d s 710 1388 m 36 X s
 gsave  2268 1538 0 0 C 384.469 1339.13 t 0 r /Helvetica findfont 58.6478 sf 0 0 m (Pythia Dijet ) show NC gr 
 gsave  2268 1538 0 0 C 384.469 1264.19 t 0 r /Helvetica findfont 58.6478 sf 0 0 m (EM+JES) show NC gr 
 gsave  2268 1538 0 0 C 938.365 1185.99 t 0 r /Helvetica findfont 58.6478 sf 0 0 m (| < 1.2) show NC gr 
 gsave  2268 1538 0 0 C 905.783 1185.99 t 0 r /Symbol findfont 58.6478 sf 0 0 m (h) show NC gr 
 gsave  2268 1538 0 0 C 720.065 1185.99 t 0 r /Helvetica findfont 58.6478 sf 0 0 m (, 1.1 < |) show NC gr 
 gsave  2268 1538 0 0 C 707.032 1169.7 t 0 r /Helvetica findfont 39.0986 sf 0 0 m (t) show NC gr 
 gsave  2268 1538 0 0 C 671.192 1185.99 t 0 r /Helvetica-Oblique findfont 58.6478 sf 0 0 m (k) show NC gr 
 gsave  2268 1538 0 0 C 430.084 1185.99 t 0 r /Helvetica findfont 58.6478 sf 0 0 m (=0.4 anti\255) show NC gr 
 gsave  2268 1538 0 0 C 384.469 1185.99 t 0 r /Helvetica-Oblique findfont 58.6478 sf 0 0 m (R) show NC gr 
 gr  gr showpage
end
%%EOF
