%!PS-Adobe-2.0 EPSF-2.0
%%BoundingBox:  0 0 567 384
%%Title: Tile0_Tile0/Distribution_Tile0_eta_12.eps: c1
%%Creator: ROOT Version 6.22/08
%%CreationDate: Tue Aug  3 22:33:30 2021
%%DocumentNeededResources: ProcSet (FontSetInit)
%%EndComments
%%BeginProlog
80 dict begin
/s {stroke} def /l {lineto} def /m {moveto} def /t {translate} def
/r {rotate} def /rl {roll}  def /R {repeat} def
/d {rlineto} def /rm {rmoveto} def /gr {grestore} def /f {eofill} def
/c {setrgbcolor} def /black {0 setgray} def /sd {setdash} def
/cl {closepath} def /sf {scalefont setfont} def /lw {setlinewidth} def
/box {m dup 0 exch d exch 0 d 0 exch neg d cl} def
/NC{systemdict begin initclip end}def/C{NC box clip newpath}def
/bl {box s} def /bf {gsave box gsave f grestore 1 lw [] 0 sd s grestore} def /Y { 0 exch d} def /X { 0 d} def 
/K {{pop pop 0 moveto} exch kshow} bind def
/ita {/ang 15 def gsave [1 0 ang dup sin exch cos div 1 0 0] concat} def 
/mp {newpath /y exch def /x exch def} def
/side {[w .77 mul w .23 mul] .385 w mul sd w 0 l currentpoint t -144 r} def
/mr {mp x y w2 0 360 arc} def /m24 {mr s} def /m20 {mr f} def
/mb {mp x y w2 add m w2 neg 0 d 0 w neg d w 0 d 0 w d cl} def
/mt {mp x y w2 add m w2 neg w neg d w 0 d cl} def
/w4 {w 4 div} def
/w6 {w 6 div} def
/w8 {w 8 div} def
/m21 {mb f} def /m25 {mb s} def /m22 {mt f} def /m26{mt s} def
/m23 {mp x y w2 sub m w2 w d w neg 0 d cl f} def
/m27 {mp x y w2 add m w3 neg w2 neg d w3 w2 neg d w3 w2 d cl s} def
/m28 {mp x w2 sub y w2 sub w3 add m w3 0 d  0 w3 neg d w3 0 d 0 w3 d w3 0 d  0 w3 d w3 neg 0 d 0 w3 d w3 neg 0 d 0 w3 neg d w3 neg 0 d cl s } def
/m29 {mp gsave x w2 sub y w2 add w3 sub m currentpoint t 4 {side} repeat cl fill gr} def
/m30 {mp gsave x w2 sub y w2 add w3 sub m currentpoint t 4 {side} repeat cl s gr} def
/m31 {mp x y w2 sub m 0 w d x w2 sub y m w 0 d x w2 .707 mul sub y w2 .707 mul add m w 1.44 div w 1.44 div neg d x w2 .707 mul sub y w2 .707 mul sub m w 1.44 div w 1.44 div d s} def
/m32 {mp x y w2 sub m w2 w d w neg 0 d cl s} def
/m33 {mp x y w2 add m w3 neg w2 neg d w3 w2 neg d w3 w2 d cl f} def
/m34 {mp x w2 sub y w2 sub w3 add m w3 0 d  0 w3 neg d w3 0 d 0 w3 d w3 0 d  0 w3 d w3 neg 0 d 0 w3 d w3 neg 0 d 0 w3 neg d w3 neg 0 d cl f } def
/m35 {mp x y w2 add m w2 neg w2 neg d w2 w2 neg d w2 w2 d w2 neg w2 d x y w2 sub m 0 w d x w2 sub y m w 0 d s} def
/m36 {mb x w2 sub y w2 add m w w neg d x w2 sub y w2 sub m w w d s} def
/m37 {mp x y m w4 neg w2 d w4 neg w2 neg d w2 0 d  w4 neg w2 neg d w2 0 d w4 neg w2 d w2 0 d w4 neg w2 d w4 neg w2 neg d cl s} def
/m38 {mp x w4 sub y w2 add m w4 neg w4 neg d 0 w2 neg d w4 w4 neg d w2 0 d w4 w4 d 0 w2 d w4 neg w4 d w2 neg 0 d x y w2 sub m 0 w d x w2 sub y m w 0 d cl s} def
/m39 {mp x y m w4 neg w2 d w4 neg w2 neg d w2 0 d  w4 neg w2 neg d w2 0 d w4 neg w2 d w2 0 d w4 neg w2 d w4 neg w2 neg d cl f} def
/m40 {mp x y m w4 w2 d w4 w4 neg d w2 neg w4 neg d w2 w4 neg d w4 neg w4 neg d w4 neg w2 d w4 neg w2 neg d w4 neg w4 d w2 w4 d w2 neg w4 d w4 w4 d w4 w2 neg d cl s} def
/m41 {mp x y m w4 w2 d w4 w4 neg d w2 neg w4 neg d w2 w4 neg d w4 neg w4 neg d w4 neg w2 d w4 neg w2 neg d w4 neg w4 d w2 w4 d w2 neg w4 d w4 w4 d w4 w2 neg d cl f} def
/m42 {mp x y w2 add m w8 neg w2 -3 4 div mul d w2 -3 4 div mul w8 neg d w2 3 4 div mul w8 neg d w8 w2 -3 4 div mul d w8 w2 3 4 div mul d w2 3 4 div mul w8 d w2 -3 4 div mul w8 d w8 neg w2 3 4 div mul d cl s} def
/m43 {mp x y w2 add m w8 neg w2 -3 4 div mul d w2 -3 4 div mul w8 neg d w2 3 4 div mul w8 neg d w8 w2 -3 4 div mul d w8 w2 3 4 div mul d w2 3 4 div mul w8 d w2 -3 4 div mul w8 d w8 neg w2 3 4 div mul d cl f} def
/m44 {mp x y m w6 neg w2 d w2 2 3 div mul 0 d w6 neg w2 neg d w2 w6 d 0 w2 -2 3 div mul d w2 neg w6 d w6 w2 neg d w2 -2 3 div mul 0 d w6 w2 d w2 neg w6 neg d 0 w2 2 3 div mul d w2 w6 neg d cl s} def
/m45 {mp x y m w6 neg w2 d w2 2 3 div mul 0 d w6 neg w2 neg d w2 w6 d 0 w2 -2 3 div mul d w2 neg w6 d w6 w2 neg d w2 -2 3 div mul 0 d w6 w2 d w2 neg w6 neg d 0 w2 2 3 div mul d w2 w6 neg d cl f} def
/m46 {mp x y w4 add m w4 neg w4 d w4 neg w4 neg d  w4 w4 neg d w4 neg w4 neg d w4 w4 neg d w4 w4 d w4 w4 neg d w4 w4 d w4 neg w4 d w4 w4 d w4 neg w4 d w4 neg w4 neg d cl s} def
/m47 {mp x y w4 add m w4 neg w4 d w4 neg w4 neg d w4 w4 neg d w4 neg w4 neg d  w4 w4 neg d w4 w4 d w4 w4 neg d w4 w4 d w4 neg w4 d w4 w4 d w4 neg w4 d w4 neg w4 neg d cl f} def
/m48 {mp x y w4 add m w4 neg w4 d w4 neg w4 neg d w4 w4 neg d  w4 neg w4 neg d w4 w4 neg d w4 w4 d w4 w4 neg d w4 w4 d w4 neg w4 d w4 w4 d w4 neg w4 d w4 neg w4 neg d  w4 w4 neg d w4 neg w4 neg d w4 neg w4 d w4 w4 d cl f} def
/m49 {mp x w2 sub w3 add y w2 sub w3 add m  0 w3 neg d w3 0 d 0 w3 d w3 0 d 0 w3 d w3 neg 0 d 0 w3 d w3 neg 0 d 0 w3 neg d w3 neg 0 d 0 w3 neg d w3 0 d 0 w3 d w3 0 d 0 w3 neg d w3 neg 0 d cl f } def
/m2 {mp x y w2 sub m 0 w d x w2 sub y m w 0 d s} def
/m5 {mp x w2 .707 mul sub y w2 .707 mul sub m w 1.44 div w 1.44 div d x w2 .707 mul sub y w2 .707 mul add m w 1.44 div w 1.44 div neg d s} def
%%IncludeResource: ProcSet (FontSetInit)
%%IncludeResource: font Times-Roman
%%IncludeResource: font Times-Italic
%%IncludeResource: font Times-Bold
%%IncludeResource: font Times-BoldItalic
%%IncludeResource: font Helvetica
%%IncludeResource: font Helvetica-Oblique
%%IncludeResource: font Helvetica-Bold
%%IncludeResource: font Helvetica-BoldOblique
%%IncludeResource: font Courier
%%IncludeResource: font Courier-Oblique
%%IncludeResource: font Courier-Bold
%%IncludeResource: font Courier-BoldOblique
%%IncludeResource: font Symbol
%%IncludeResource: font ZapfDingbats
/reEncode {exch findfont dup length dict begin {1 index /FID eq  {pop pop} {def} ifelse } forall /Encoding exch def currentdict end dup /FontName get exch definefont pop } def [/Times-Bold /Times-Italic /Times-BoldItalic /Helvetica /Helvetica-Oblique
 /Helvetica-Bold /Helvetica-BoldOblique /Courier /Courier-Oblique /Courier-Bold /Courier-BoldOblique /Times-Roman /AvantGarde-Book /AvantGarde-BookOblique /AvantGarde-Demi /AvantGarde-DemiOblique /Bookman-Demi /Bookman-DemiItalic /Bookman-Light
 /Bookman-LightItalic /Helvetica-Narrow /Helvetica-Narrow-Bold /Helvetica-Narrow-BoldOblique /Helvetica-Narrow-Oblique /NewCenturySchlbk-Roman /NewCenturySchlbk-Bold /NewCenturySchlbk-BoldItalic /NewCenturySchlbk-Italic /Palatino-Bold
 /Palatino-BoldItalic /Palatino-Italic /Palatino-Roman ] {ISOLatin1Encoding reEncode } forall
%%EndProlog
%%BeginSetup
%%EndSetup
newpath  gsave  .25 .25 scale  gsave  0 0 t 1 0 0 c[  ] 0 sd 3 lw 1 1 1 c 2268 1538 0 0 bf black 1 1 1 c 1905 1276 295 231 bf black 1905 1276 295 231 bl 1 1 1 c 1905 1276 295 231 bf black 1905 1276 295 231 bl 0 0 1 c 6 lw 1 1 1 c 0 0 1 c 3 lw /w 31
 def /w2 {w 2 div} def /w3 {w 3 div} def 302 231 m20 6 lw 3 lw 315 231 m20 6 lw 3 lw 329 233 m20 6 lw 3 lw 342 234 m20 6 lw 3 lw 356 236 m20 6 lw 3 lw 370 234 m20 6 lw 3 lw 383 234 m20 6 lw 3 lw 397 238 m20 6 lw 3 lw 410 238 m20 6 lw 3 lw 424 237 m20
 6 lw 3 lw 438 239 m20 6 lw 3 lw 451 246 m20 6 lw 3 lw 465 244 m20 6 lw 3 lw 478 253 m20 6 lw 3 lw 492 261 m20 6 lw 3 lw 506 276 m20 6 lw 3 lw 519 272 m20 6 lw 3 lw 533 314 m20 6 lw 3 lw 547 359 m20 6 lw 560 563 m 1 Y s 560 590 m s 3 lw 560 577 m20 6
 lw 574 641 m 2 Y s 574 669 m 2 Y s 3 lw 574 656 m20 6 lw 3 lw 587 477 m20 6 lw 3 lw 601 423 m20 6 lw 3 lw 615 421 m20 6 lw 3 lw 628 399 m20 6 lw 3 lw 642 403 m20 6 lw 3 lw 655 391 m20 6 lw 3 lw 669 381 m20 6 lw 3 lw 683 386 m20 6 lw 3 lw 696 372 m20
 6 lw 3 lw 710 377 m20 6 lw 3 lw 723 365 m20 6 lw 3 lw 737 359 m20 6 lw 3 lw 751 356 m20 6 lw 3 lw 764 353 m20 6 lw 3 lw 778 348 m20 6 lw 3 lw 791 334 m20 6 lw 3 lw 805 344 m20 6 lw 3 lw 819 323 m20 6 lw 3 lw 832 322 m20 6 lw 3 lw 846 318 m20 6 lw 3
 lw 859 325 m20 6 lw 3 lw 873 318 m20 6 lw 3 lw 887 313 m20 6 lw 3 lw 900 302 m20 6 lw 3 lw 914 302 m20 6 lw 3 lw 927 297 m20 6 lw 3 lw 941 294 m20 6 lw 3 lw 955 294 m20 6 lw 3 lw 968 298 m20 6 lw 3 lw 982 285 m20 6 lw 3 lw 996 282 m20 6 lw 3 lw 1009
 284 m20 6 lw 3 lw 1023 279 m20 6 lw 3 lw 1036 287 m20 6 lw 3 lw 1050 279 m20 6 lw 3 lw 1064 272 m20 6 lw 3 lw 1077 263 m20 6 lw 3 lw 1091 265 m20 6 lw 3 lw 1104 264 m20 6 lw 3 lw 1118 259 m20 6 lw 3 lw 1132 260 m20 6 lw 3 lw 1145 259 m20 6 lw 3 lw
 1159 259 m20 6 lw 3 lw 1172 256 m20 6 lw 3 lw 1186 264 m20 6 lw 3 lw 1200 257 m20 6 lw 3 lw 1213 259 m20 6 lw 3 lw 1227 258 m20 6 lw 3 lw 1240 259 m20 6 lw 3 lw 1254 263 m20 6 lw 3 lw 1268 256 m20 6 lw 3 lw 1281 246 m20 6 lw 3 lw 1295 252 m20 6 lw 3
 lw 1308 256 m20 6 lw 3 lw 1322 251 m20 6 lw 3 lw 1336 249 m20 6 lw 3 lw 1349 245 m20 6 lw 3 lw 1363 240 m20 6 lw 3 lw 1377 245 m20 6 lw 3 lw 1390 245 m20 6 lw 3 lw 1404 241 m20 6 lw 3 lw 1417 244 m20 6 lw 3 lw 1431 247 m20 6 lw 3 lw 1445 247 m20 6
 lw 3 lw 1458 238 m20 6 lw 3 lw 1472 240 m20 6 lw 3 lw 1485 243 m20 6 lw 3 lw 1499 248 m20 6 lw 3 lw 1513 240 m20 6 lw 3 lw 1526 238 m20 6 lw 3 lw 1540 241 m20 6 lw 3 lw 1553 236 m20 6 lw 3 lw 1567 238 m20 6 lw 3 lw 1581 239 m20 6 lw 3 lw 1594 239
 m20 6 lw 3 lw 1608 237 m20 6 lw 3 lw 1621 237 m20 6 lw 3 lw 1635 238 m20 6 lw 3 lw 1649 238 m20 6 lw 3 lw 1662 235 m20 6 lw 3 lw 1676 239 m20 6 lw 3 lw 1689 238 m20 6 lw 3 lw 1703 234 m20 6 lw 3 lw 1717 243 m20 6 lw 3 lw 1730 232 m20 6 lw 3 lw 1744
 236 m20 6 lw 3 lw 1757 235 m20 6 lw 3 lw 1771 235 m20 6 lw 3 lw 1785 232 m20 6 lw 3 lw 1798 233 m20 6 lw 3 lw 1812 234 m20 6 lw 3 lw 1826 233 m20 6 lw 3 lw 1839 234 m20 6 lw 3 lw 1853 233 m20 6 lw 3 lw 1866 235 m20 6 lw 3 lw 1880 236 m20 6 lw 3 lw
 1894 232 m20 6 lw 3 lw 1907 234 m20 6 lw 3 lw 1921 232 m20 6 lw 3 lw 1934 233 m20 6 lw 3 lw 1948 232 m20 6 lw 3 lw 1962 233 m20 6 lw 3 lw 1975 238 m20 6 lw 3 lw 1989 234 m20 6 lw 3 lw 2002 232 m20 6 lw 3 lw 2016 232 m20 6 lw 3 lw 2030 231 m20 6 lw 3
 lw 2043 233 m20 6 lw 3 lw 2057 231 m20 6 lw 3 lw 2070 233 m20 6 lw 3 lw 2084 232 m20 6 lw 3 lw 2098 232 m20 6 lw 3 lw 2111 231 m20 6 lw 3 lw 2125 233 m20 6 lw 3 lw 2138 232 m20 6 lw 3 lw 2152 233 m20 6 lw 3 lw 2166 231 m20 6 lw 3 lw 2179 232 m20 6
 lw 3 lw 2193 232 m20 6 lw black 3 lw 295 231 m 1905 X s 295 269 m -38 Y s 349 250 m -19 Y s 404 250 m -19 Y s 458 250 m -19 Y s 513 250 m -19 Y s 567 269 m -38 Y s 621 250 m -19 Y s 676 250 m -19 Y s 730 250 m -19 Y s 785 250 m -19 Y s 839 269 m -38
 Y s 893 250 m -19 Y s 948 250 m -19 Y s 1002 250 m -19 Y s 1057 250 m -19 Y s 1111 269 m -38 Y s 1166 250 m -19 Y s 1220 250 m -19 Y s 1274 250 m -19 Y s 1329 250 m -19 Y s 1383 269 m -38 Y s 1438 250 m -19 Y s 1492 250 m -19 Y s 1547 250 m -19 Y s
 1601 250 m -19 Y s 1655 269 m -38 Y s 1710 250 m -19 Y s 1764 250 m -19 Y s 1819 250 m -19 Y s 1873 250 m -19 Y s 1928 269 m -38 Y s 1982 250 m -19 Y s 2036 250 m -19 Y s 2091 250 m -19 Y s 2145 250 m -19 Y s 2200 269 m -38 Y s
 gsave  2268 1538 0 0 C 267.173 162.911 t 0 r /Helvetica findfont 71.6807 sf 0 0 m (0.1) show NC gr 
 gsave  2268 1538 0 0 C 231.333 162.911 t 0 r /Symbol findfont 71.6807 sf 0 0 m (-) show NC gr 
 gsave  2268 1538 0 0 C 547.38 162.911 t 0 r /Helvetica findfont 71.6807 sf 0 0 m (0) show NC gr 
 gsave  2268 1538 0 0 C 795.004 162.911 t 0 r /Helvetica findfont 71.6807 sf 0 0 m (0.1) show NC gr 
 gsave  2268 1538 0 0 C 1062.18 162.911 t 0 r /Helvetica findfont 71.6807 sf 0 0 m (0.2) show NC gr 
 gsave  2268 1538 0 0 C 1332.61 162.911 t 0 r /Helvetica findfont 71.6807 sf 0 0 m (0.3) show NC gr 
 gsave  2268 1538 0 0 C 1606.3 162.911 t 0 r /Helvetica findfont 71.6807 sf 0 0 m (0.4) show NC gr 
 gsave  2268 1538 0 0 C 1876.73 162.911 t 0 r /Helvetica findfont 71.6807 sf 0 0 m (0.5) show NC gr 
 gsave  2268 1538 0 0 C 2150.42 162.911 t 0 r /Helvetica findfont 71.6807 sf 0 0 m (0.6) show NC gr 
 gsave  2268 1538 0 0 C 2095.03 19.5493 t 0 r /Helvetica findfont 48.8732 sf 0 0 m (Tile0) show NC gr 
 gsave  2268 1538 0 0 C 2075.48 42.3568 t 0 r /Helvetica findfont 71.6807 sf 0 0 m (f) show NC gr  295 1507 m 1905 X s 295 1468 m 39 Y s 349 1488 m 19 Y s 404 1488 m 19 Y s 458 1488 m 19 Y s 513 1488 m 19 Y s 567 1468 m 39 Y s 621 1488 m 19 Y s 676
 1488 m 19 Y s 730 1488 m 19 Y s 785 1488 m 19 Y s 839 1468 m 39 Y s 893 1488 m 19 Y s 948 1488 m 19 Y s 1002 1488 m 19 Y s 1057 1488 m 19 Y s 1111 1468 m 39 Y s 1166 1488 m 19 Y s 1220 1488 m 19 Y s 1274 1488 m 19 Y s 1329 1488 m 19 Y s 1383 1468 m
 39 Y s 1438 1488 m 19 Y s 1492 1488 m 19 Y s 1547 1488 m 19 Y s 1601 1488 m 19 Y s 1655 1468 m 39 Y s 1710 1488 m 19 Y s 1764 1488 m 19 Y s 1819 1488 m 19 Y s 1873 1488 m 19 Y s 1928 1468 m 39 Y s 1982 1488 m 19 Y s 2036 1488 m 19 Y s 2091 1488 m 19
 Y s 2145 1488 m 19 Y s 2200 1468 m 39 Y s 295 231 m 1276 Y s 351 231 m -56 X s 323 260 m -28 X s 323 290 m -28 X s 323 320 m -28 X s 351 350 m -56 X s 323 380 m -28 X s 323 410 m -28 X s 323 439 m -28 X s 351 469 m -56 X s 323 499 m -28 X s 323 529
 m -28 X s 323 559 m -28 X s 351 588 m -56 X s 323 618 m -28 X s 323 648 m -28 X s 323 678 m -28 X s 351 708 m -56 X s 323 737 m -28 X s 323 767 m -28 X s 323 797 m -28 X s 351 827 m -56 X s 323 857 m -28 X s 323 886 m -28 X s 323 916 m -28 X s 351
 946 m -56 X s 323 976 m -28 X s 323 1006 m -28 X s 323 1035 m -28 X s 351 1065 m -56 X s 323 1095 m -28 X s 323 1125 m -28 X s 323 1155 m -28 X s 351 1185 m -56 X s 323 1214 m -28 X s 323 1244 m -28 X s 323 1274 m -28 X s 351 1304 m -56 X s 323 1334
 m -28 X s 323 1363 m -28 X s 323 1393 m -28 X s 351 1423 m -56 X s 351 1423 m -56 X s 323 1453 m -28 X s 323 1483 m -28 X s
 gsave  2268 1538 0 0 C 244.366 205.267 t 0 r /Helvetica findfont 71.6807 sf 0 0 m (0) show NC gr 
 gsave  2268 1538 0 0 C 146.62 325.821 t 0 r /Helvetica findfont 71.6807 sf 0 0 m (0.02) show NC gr 
 gsave  2268 1538 0 0 C 146.62 443.117 t 0 r /Helvetica findfont 71.6807 sf 0 0 m (0.04) show NC gr 
 gsave  2268 1538 0 0 C 146.62 563.671 t 0 r /Helvetica findfont 71.6807 sf 0 0 m (0.06) show NC gr 
 gsave  2268 1538 0 0 C 146.62 684.225 t 0 r /Helvetica findfont 71.6807 sf 0 0 m (0.08) show NC gr 
 gsave  2268 1538 0 0 C 198.751 801.521 t 0 r /Helvetica findfont 71.6807 sf 0 0 m (0.1) show NC gr 
 gsave  2268 1538 0 0 C 146.62 922.074 t 0 r /Helvetica findfont 71.6807 sf 0 0 m (0.12) show NC gr 
 gsave  2268 1538 0 0 C 146.62 1039.37 t 0 r /Helvetica findfont 71.6807 sf 0 0 m (0.14) show NC gr 
 gsave  2268 1538 0 0 C 146.62 1159.92 t 0 r /Helvetica findfont 71.6807 sf 0 0 m (0.16) show NC gr 
 gsave  2268 1538 0 0 C 146.62 1280.48 t 0 r /Helvetica findfont 71.6807 sf 0 0 m (0.18) show NC gr 
 gsave  2268 1538 0 0 C 188.976 1397.77 t 0 r /Helvetica findfont 71.6807 sf 0 0 m (0.2) show NC gr 
 gsave  2268 1538 0 0 C 156.394 925.333 t 90 r /Helvetica findfont 71.6807 sf 0 0 m (Normalized entries) show NC gr  2200 231 m 1276 Y s 2143 231 m 57 X s 2171 260 m 29 X s 2171 290 m 29 X s 2171 320 m 29 X s 2143 350 m 57 X s 2171 380 m 29 X s 2171
 410 m 29 X s 2171 439 m 29 X s 2143 469 m 57 X s 2171 499 m 29 X s 2171 529 m 29 X s 2171 559 m 29 X s 2143 588 m 57 X s 2171 618 m 29 X s 2171 648 m 29 X s 2171 678 m 29 X s 2143 708 m 57 X s 2171 737 m 29 X s 2171 767 m 29 X s 2171 797 m 29 X s
 2143 827 m 57 X s 2171 857 m 29 X s 2171 886 m 29 X s 2171 916 m 29 X s 2143 946 m 57 X s 2171 976 m 29 X s 2171 1006 m 29 X s 2171 1035 m 29 X s 2143 1065 m 57 X s 2171 1095 m 29 X s 2171 1125 m 29 X s 2171 1155 m 29 X s 2143 1185 m 57 X s 2171
 1214 m 29 X s 2171 1244 m 29 X s 2171 1274 m 29 X s 2143 1304 m 57 X s 2171 1334 m 29 X s 2171 1363 m 29 X s 2171 1393 m 29 X s 2143 1423 m 57 X s 2143 1423 m 57 X s 2171 1453 m 29 X s 2171 1483 m 29 X s 1 0 0 c 6 lw 1 1 1 c 1 0 0 c 3 lw 383 231 m20
 6 lw 3 lw 397 231 m20 6 lw 3 lw 410 231 m20 6 lw 3 lw 438 231 m20 6 lw 3 lw 451 231 m20 6 lw 3 lw 465 231 m20 6 lw 3 lw 478 231 m20 6 lw 3 lw 492 232 m20 6 lw 3 lw 506 233 m20 6 lw 3 lw 519 235 m20 6 lw 3 lw 533 240 m20 6 lw 3 lw 547 250 m20 6 lw 3
 lw 560 306 m20 6 lw 3 lw 574 375 m20 6 lw 3 lw 587 360 m20 6 lw 3 lw 601 373 m20 6 lw 3 lw 615 393 m20 6 lw 3 lw 628 404 m20 6 lw 3 lw 642 403 m20 6 lw 3 lw 655 410 m20 6 lw 3 lw 669 410 m20 6 lw 3 lw 683 412 m20 6 lw 3 lw 696 413 m20 6 lw 3 lw 710
 409 m20 6 lw 3 lw 723 403 m20 6 lw 3 lw 737 408 m20 6 lw 3 lw 751 397 m20 6 lw 3 lw 764 396 m20 6 lw 3 lw 778 382 m20 6 lw 3 lw 791 390 m20 6 lw 3 lw 805 376 m20 6 lw 3 lw 819 371 m20 6 lw 3 lw 832 367 m20 6 lw 3 lw 846 366 m20 6 lw 3 lw 859 357 m20
 6 lw 3 lw 873 352 m20 6 lw 3 lw 887 347 m20 6 lw 3 lw 900 337 m20 6 lw 3 lw 914 333 m20 6 lw 3 lw 927 330 m20 6 lw 3 lw 941 326 m20 6 lw 3 lw 955 322 m20 6 lw 3 lw 968 314 m20 6 lw 3 lw 982 309 m20 6 lw 3 lw 996 309 m20 6 lw 3 lw 1009 308 m20 6 lw 3
 lw 1023 302 m20 6 lw 3 lw 1036 297 m20 6 lw 3 lw 1050 295 m20 6 lw 3 lw 1064 287 m20 6 lw 3 lw 1077 285 m20 6 lw 3 lw 1091 286 m20 6 lw 3 lw 1104 284 m20 6 lw 3 lw 1118 276 m20 6 lw 3 lw 1132 275 m20 6 lw 3 lw 1145 274 m20 6 lw 3 lw 1159 267 m20 6
 lw 3 lw 1172 267 m20 6 lw 3 lw 1186 267 m20 6 lw 3 lw 1200 263 m20 6 lw 3 lw 1213 261 m20 6 lw 3 lw 1227 258 m20 6 lw 3 lw 1240 259 m20 6 lw 3 lw 1254 260 m20 6 lw 3 lw 1268 255 m20 6 lw 3 lw 1281 253 m20 6 lw 3 lw 1295 257 m20 6 lw 3 lw 1308 254
 m20 6 lw 3 lw 1322 252 m20 6 lw 3 lw 1336 248 m20 6 lw 3 lw 1349 251 m20 6 lw 3 lw 1363 250 m20 6 lw 3 lw 1377 248 m20 6 lw 3 lw 1390 247 m20 6 lw 3 lw 1404 246 m20 6 lw 3 lw 1417 243 m20 6 lw 3 lw 1431 244 m20 6 lw 3 lw 1445 245 m20 6 lw 3 lw 1458
 242 m20 6 lw 3 lw 1472 240 m20 6 lw 3 lw 1485 240 m20 6 lw 3 lw 1499 240 m20 6 lw 3 lw 1513 240 m20 6 lw 3 lw 1526 241 m20 6 lw 3 lw 1540 239 m20 6 lw 3 lw 1553 239 m20 6 lw 3 lw 1567 237 m20 6 lw 3 lw 1581 241 m20 6 lw 3 lw 1594 239 m20 6 lw 3 lw
 1608 239 m20 6 lw 3 lw 1621 237 m20 6 lw 3 lw 1635 237 m20 6 lw 3 lw 1649 237 m20 6 lw 3 lw 1662 237 m20 6 lw 3 lw 1676 236 m20 6 lw 3 lw 1689 238 m20 6 lw 3 lw 1703 237 m20 6 lw 3 lw 1717 234 m20 6 lw 3 lw 1730 235 m20 6 lw 3 lw 1744 234 m20 6 lw 3
 lw 1757 234 m20 6 lw 3 lw 1771 234 m20 6 lw 3 lw 1785 234 m20 6 lw 3 lw 1798 234 m20 6 lw 3 lw 1812 235 m20 6 lw 3 lw 1826 233 m20 6 lw 3 lw 1839 232 m20 6 lw 3 lw 1853 233 m20 6 lw 3 lw 1866 232 m20 6 lw 3 lw 1880 233 m20 6 lw 3 lw 1894 234 m20 6
 lw 3 lw 1907 233 m20 6 lw 3 lw 1921 233 m20 6 lw 3 lw 1934 232 m20 6 lw 3 lw 1948 232 m20 6 lw 3 lw 1962 232 m20 6 lw 3 lw 1975 233 m20 6 lw 3 lw 1989 232 m20 6 lw 3 lw 2002 233 m20 6 lw 3 lw 2016 232 m20 6 lw 3 lw 2030 233 m20 6 lw 3 lw 2043 233
 m20 6 lw 3 lw 2057 232 m20 6 lw 3 lw 2070 231 m20 6 lw 3 lw 2084 231 m20 6 lw 3 lw 2098 231 m20 6 lw 3 lw 2111 231 m20 6 lw 3 lw 2125 232 m20 6 lw 3 lw 2138 231 m20 6 lw 3 lw 2152 231 m20 6 lw 3 lw 2166 232 m20 6 lw 3 lw 2179 231 m20 6 lw 3 lw 2193
 232 m20 6 lw black 1 1 1 c black 3 lw 547 231 m20 6 lw 3 lw 560 235 m20 6 lw 3 lw 574 247 m20 6 lw 3 lw 587 257 m20 6 lw 3 lw 601 271 m20 6 lw 3 lw 615 277 m20 6 lw 3 lw 628 286 m20 6 lw 3 lw 642 299 m20 6 lw 3 lw 655 316 m20 6 lw 3 lw 669 322 m20 6
 lw 3 lw 683 334 m20 6 lw 3 lw 696 347 m20 6 lw 3 lw 710 356 m20 6 lw 3 lw 723 362 m20 6 lw 3 lw 737 384 m20 6 lw 3 lw 751 380 m20 6 lw 3 lw 764 391 m20 6 lw 3 lw 778 400 m20 6 lw 3 lw 791 398 m20 6 lw 3 lw 805 404 m20 6 lw 3 lw 819 403 m20 6 lw 3 lw
 832 397 m20 6 lw 3 lw 846 386 m20 6 lw 3 lw 859 407 m20 6 lw 3 lw 873 389 m20 6 lw 3 lw 887 381 m20 6 lw 3 lw 900 378 m20 6 lw 3 lw 914 383 m20 6 lw 3 lw 927 379 m20 6 lw 3 lw 941 383 m20 6 lw 3 lw 955 369 m20 6 lw 3 lw 968 359 m20 6 lw 3 lw 982 355
 m20 6 lw 3 lw 996 343 m20 6 lw 3 lw 1009 346 m20 6 lw 3 lw 1023 348 m20 6 lw 3 lw 1036 325 m20 6 lw 3 lw 1050 315 m20 6 lw 3 lw 1064 318 m20 6 lw 3 lw 1077 316 m20 6 lw 3 lw 1091 318 m20 6 lw 3 lw 1104 318 m20 6 lw 3 lw 1118 302 m20 6 lw 3 lw 1132
 296 m20 6 lw 3 lw 1145 299 m20 6 lw 3 lw 1159 293 m20 6 lw 3 lw 1172 294 m20 6 lw 3 lw 1186 279 m20 6 lw 3 lw 1200 282 m20 6 lw 3 lw 1213 276 m20 6 lw 3 lw 1227 275 m20 6 lw 3 lw 1240 276 m20 6 lw 3 lw 1254 276 m20 6 lw 3 lw 1268 272 m20 6 lw 3 lw
 1281 267 m20 6 lw 3 lw 1295 264 m20 6 lw 3 lw 1308 269 m20 6 lw 3 lw 1322 258 m20 6 lw 3 lw 1336 260 m20 6 lw 3 lw 1349 257 m20 6 lw 3 lw 1363 256 m20 6 lw 3 lw 1377 258 m20 6 lw 3 lw 1390 255 m20 6 lw 3 lw 1404 250 m20 6 lw 3 lw 1417 247 m20 6 lw 3
 lw 1431 250 m20 6 lw 3 lw 1445 250 m20 6 lw 3 lw 1458 246 m20 6 lw 3 lw 1472 243 m20 6 lw 3 lw 1485 242 m20 6 lw 3 lw 1499 244 m20 6 lw 3 lw 1513 243 m20 6 lw 3 lw 1526 242 m20 6 lw 3 lw 1540 242 m20 6 lw 3 lw 1553 240 m20 6 lw 3 lw 1567 243 m20 6
 lw 3 lw 1581 241 m20 6 lw 3 lw 1594 238 m20 6 lw 3 lw 1608 238 m20 6 lw 3 lw 1621 238 m20 6 lw 3 lw 1635 237 m20 6 lw 3 lw 1649 238 m20 6 lw 3 lw 1662 236 m20 6 lw 3 lw 1676 236 m20 6 lw 3 lw 1689 239 m20 6 lw 3 lw 1703 235 m20 6 lw 3 lw 1717 234
 m20 6 lw 3 lw 1730 237 m20 6 lw 3 lw 1744 234 m20 6 lw 3 lw 1757 235 m20 6 lw 3 lw 1771 234 m20 6 lw 3 lw 1785 234 m20 6 lw 3 lw 1798 233 m20 6 lw 3 lw 1812 233 m20 6 lw 3 lw 1826 233 m20 6 lw 3 lw 1839 233 m20 6 lw 3 lw 1853 234 m20 6 lw 3 lw 1866
 232 m20 6 lw 3 lw 1880 233 m20 6 lw 3 lw 1894 232 m20 6 lw 3 lw 1907 233 m20 6 lw 3 lw 1921 233 m20 6 lw 3 lw 1934 232 m20 6 lw 3 lw 1948 232 m20 6 lw 3 lw 1962 233 m20 6 lw 3 lw 1975 232 m20 6 lw 3 lw 1989 232 m20 6 lw 3 lw 2002 232 m20 6 lw 3 lw
 2016 231 m20 6 lw 3 lw 2030 232 m20 6 lw 3 lw 2043 233 m20 6 lw 3 lw 2057 231 m20 6 lw 3 lw 2070 231 m20 6 lw 3 lw 2084 231 m20 6 lw 3 lw 2098 231 m20 6 lw 3 lw 2111 231 m20 6 lw 3 lw 2125 232 m20 6 lw 3 lw 2138 231 m20 6 lw 3 lw 2152 231 m20 6 lw 3
 lw 2166 231 m20 6 lw 3 lw 2179 231 m20 6 lw 3 lw 2193 231 m20 6 lw 0 0.6 0 c 1 1 1 c 0 0.6 0 c 3 lw 560 231 m20 6 lw 3 lw 574 241 m20 6 lw 3 lw 587 247 m20 6 lw 3 lw 601 248 m20 6 lw 3 lw 615 256 m20 6 lw 3 lw 628 267 m20 6 lw 3 lw 642 263 m20 6 lw
 3 lw 655 275 m20 6 lw 3 lw 669 287 m20 6 lw 3 lw 683 294 m20 6 lw 3 lw 696 305 m20 6 lw 3 lw 710 311 m20 6 lw 3 lw 723 315 m20 6 lw 3 lw 737 334 m20 6 lw 3 lw 751 351 m20 6 lw 3 lw 764 343 m20 6 lw 3 lw 778 347 m20 6 lw 3 lw 791 361 m20 6 lw 3 lw
 805 374 m20 6 lw 3 lw 819 373 m20 6 lw 3 lw 832 378 m20 6 lw 3 lw 846 378 m20 6 lw 3 lw 859 381 m20 6 lw 3 lw 873 379 m20 6 lw 3 lw 887 391 m20 6 lw 3 lw 900 384 m20 6 lw 3 lw 914 389 m20 6 lw 3 lw 927 389 m20 6 lw 3 lw 941 391 m20 6 lw 3 lw 955 381
 m20 6 lw 3 lw 968 386 m20 6 lw 3 lw 982 380 m20 6 lw 3 lw 996 371 m20 6 lw 3 lw 1009 369 m20 6 lw 3 lw 1023 355 m20 6 lw 3 lw 1036 355 m20 6 lw 3 lw 1050 353 m20 6 lw 3 lw 1064 345 m20 6 lw 3 lw 1077 345 m20 6 lw 3 lw 1091 337 m20 6 lw 3 lw 1104 324
 m20 6 lw 3 lw 1118 327 m20 6 lw 3 lw 1132 326 m20 6 lw 3 lw 1145 326 m20 6 lw 3 lw 1159 313 m20 6 lw 3 lw 1172 306 m20 6 lw 3 lw 1186 302 m20 6 lw 3 lw 1200 296 m20 6 lw 3 lw 1213 299 m20 6 lw 3 lw 1227 296 m20 6 lw 3 lw 1240 291 m20 6 lw 3 lw 1254
 282 m20 6 lw 3 lw 1268 284 m20 6 lw 3 lw 1281 276 m20 6 lw 3 lw 1295 275 m20 6 lw 3 lw 1308 276 m20 6 lw 3 lw 1322 273 m20 6 lw 3 lw 1336 274 m20 6 lw 3 lw 1349 267 m20 6 lw 3 lw 1363 260 m20 6 lw 3 lw 1377 259 m20 6 lw 3 lw 1390 258 m20 6 lw 3 lw
 1404 255 m20 6 lw 3 lw 1417 257 m20 6 lw 3 lw 1431 254 m20 6 lw 3 lw 1445 256 m20 6 lw 3 lw 1458 254 m20 6 lw 3 lw 1472 250 m20 6 lw 3 lw 1485 247 m20 6 lw 3 lw 1499 251 m20 6 lw 3 lw 1513 250 m20 6 lw 3 lw 1526 247 m20 6 lw 3 lw 1540 244 m20 6 lw 3
 lw 1553 244 m20 6 lw 3 lw 1567 242 m20 6 lw 3 lw 1581 242 m20 6 lw 3 lw 1594 241 m20 6 lw 3 lw 1608 241 m20 6 lw 3 lw 1621 242 m20 6 lw 3 lw 1635 238 m20 6 lw 3 lw 1649 239 m20 6 lw 3 lw 1662 238 m20 6 lw 3 lw 1676 238 m20 6 lw 3 lw 1689 236 m20 6
 lw 3 lw 1703 237 m20 6 lw 3 lw 1717 236 m20 6 lw 3 lw 1730 236 m20 6 lw 3 lw 1744 235 m20 6 lw 3 lw 1757 236 m20 6 lw 3 lw 1771 236 m20 6 lw 3 lw 1785 234 m20 6 lw 3 lw 1798 234 m20 6 lw 3 lw 1812 235 m20 6 lw 3 lw 1826 234 m20 6 lw 3 lw 1839 235
 m20 6 lw 3 lw 1853 234 m20 6 lw 3 lw 1866 232 m20 6 lw 3 lw 1880 233 m20 6 lw 3 lw 1894 232 m20 6 lw 3 lw 1907 233 m20 6 lw 3 lw 1921 232 m20 6 lw 3 lw 1934 232 m20 6 lw 3 lw 1948 233 m20 6 lw 3 lw 1962 233 m20 6 lw 3 lw 1975 232 m20 6 lw 3 lw 1989
 233 m20 6 lw 3 lw 2002 233 m20 6 lw 3 lw 2016 232 m20 6 lw 3 lw 2030 232 m20 6 lw 3 lw 2043 232 m20 6 lw 3 lw 2057 231 m20 6 lw 3 lw 2070 232 m20 6 lw 3 lw 2084 232 m20 6 lw 3 lw 2098 231 m20 6 lw 3 lw 2111 232 m20 6 lw 3 lw 2125 231 m20 6 lw 3 lw
 2138 232 m20 6 lw 3 lw 2152 231 m20 6 lw 3 lw 2166 231 m20 6 lw 3 lw 2179 231 m20 6 lw 3 lw 2193 231 m20 6 lw black
 gsave  2268 1538 0 0 C 1648.66 1394.52 t 0 r /Helvetica-Bold findfont 48.8732 sf 0 0 m ( < 40 GeV) show NC gr 
 gsave  2268 1538 0 0 C 1573.72 1420.58 t 0 r /Helvetica-Bold findfont 32.5821 sf 0 0 m (truth) show NC gr 
 gsave  2268 1538 0 0 C 1573.72 1368.45 t 0 r /Helvetica-Bold findfont 32.5821 sf 0 0 m (T) show NC gr 
 gsave  2268 1538 0 0 C 1433.61 1394.52 t 0 r /Helvetica-Bold findfont 48.8732 sf 0 0 m (30 < p) show NC gr  0 0 1 c 1275 1413 m 131 X s 3 lw 1341 1413 m20 6 lw black
 gsave  2268 1538 0 0 C 1648.66 1296.77 t 0 r /Helvetica-Bold findfont 48.8732 sf 0 0 m ( < 100 GeV) show NC gr 
 gsave  2268 1538 0 0 C 1573.72 1322.83 t 0 r /Helvetica-Bold findfont 32.5821 sf 0 0 m (truth) show NC gr 
 gsave  2268 1538 0 0 C 1573.72 1270.7 t 0 r /Helvetica-Bold findfont 32.5821 sf 0 0 m (T) show NC gr 
 gsave  2268 1538 0 0 C 1433.61 1296.77 t 0 r /Helvetica-Bold findfont 48.8732 sf 0 0 m (80 < p) show NC gr  1 0 0 c 1275 1317 m 131 X s 3 lw 1341 1317 m20 6 lw black
 gsave  2268 1538 0 0 C 1674.72 1202.28 t 0 r /Helvetica-Bold findfont 48.8732 sf 0 0 m ( < 400 GeV) show NC gr 
 gsave  2268 1538 0 0 C 1599.78 1228.35 t 0 r /Helvetica-Bold findfont 32.5821 sf 0 0 m (truth) show NC gr 
 gsave  2268 1538 0 0 C 1599.78 1176.21 t 0 r /Helvetica-Bold findfont 32.5821 sf 0 0 m (T) show NC gr 
 gsave  2268 1538 0 0 C 1433.61 1202.28 t 0 r /Helvetica-Bold findfont 48.8732 sf 0 0 m (350 < p) show NC gr  1275 1221 m 131 X s 3 lw 1341 1221 m20 6 lw
 gsave  2268 1538 0 0 C 1704.05 1104.53 t 0 r /Helvetica-Bold findfont 48.8732 sf 0 0 m ( < 1200 GeV) show NC gr 
 gsave  2268 1538 0 0 C 1629.11 1130.6 t 0 r /Helvetica-Bold findfont 32.5821 sf 0 0 m (truth) show NC gr 
 gsave  2268 1538 0 0 C 1629.11 1078.47 t 0 r /Helvetica-Bold findfont 32.5821 sf 0 0 m (T) show NC gr 
 gsave  2268 1538 0 0 C 1433.61 1104.53 t 0 r /Helvetica-Bold findfont 48.8732 sf 0 0 m (1000 < p) show NC gr  0 0.6 0 c 1275 1125 m 131 X s 3 lw 1341 1125 m20 6 lw black
 gsave  2268 1538 0 0 C 384.469 1417.32 t 0 r /Helvetica-BoldOblique findfont 61.9061 sf 0 0 m (ATLAS) show NC gr 
 gsave  2268 1538 0 0 C 632.093 1417.32 t 0 r /Helvetica findfont 58.6478 sf 0 0 m (Simulation Internal) show NC gr 
 gsave  2268 1538 0 0 C 746.131 1339.13 t 0 r /Helvetica findfont 58.6478 sf 0 0 m ( = 13 TeV) show NC gr 
 gsave  2268 1538 0 0 C 716.807 1339.13 t 0 r /Helvetica findfont 58.6478 sf 0 0 m (s) show NC gr  697 1372 m 7 -36 d s 3 lw 704 1336 m 6 52 d s 710 1388 m 36 X s
 gsave  2268 1538 0 0 C 384.469 1339.13 t 0 r /Helvetica findfont 58.6478 sf 0 0 m (Pythia Dijet ) show NC gr 
 gsave  2268 1538 0 0 C 384.469 1264.19 t 0 r /Helvetica findfont 58.6478 sf 0 0 m (EM+JES) show NC gr 
 gsave  2268 1538 0 0 C 938.365 1185.99 t 0 r /Helvetica findfont 58.6478 sf 0 0 m (| < 1.3) show NC gr 
 gsave  2268 1538 0 0 C 905.783 1185.99 t 0 r /Symbol findfont 58.6478 sf 0 0 m (h) show NC gr 
 gsave  2268 1538 0 0 C 720.065 1185.99 t 0 r /Helvetica findfont 58.6478 sf 0 0 m (, 1.2 < |) show NC gr 
 gsave  2268 1538 0 0 C 707.032 1169.7 t 0 r /Helvetica findfont 39.0986 sf 0 0 m (t) show NC gr 
 gsave  2268 1538 0 0 C 671.192 1185.99 t 0 r /Helvetica-Oblique findfont 58.6478 sf 0 0 m (k) show NC gr 
 gsave  2268 1538 0 0 C 430.084 1185.99 t 0 r /Helvetica findfont 58.6478 sf 0 0 m (=0.4 anti\255) show NC gr 
 gsave  2268 1538 0 0 C 384.469 1185.99 t 0 r /Helvetica-Oblique findfont 58.6478 sf 0 0 m (R) show NC gr 
 gr  gr showpage
end
%%EOF
