%!PS-Adobe-2.0 EPSF-2.0
%%BoundingBox:  0 0 567 384
%%Title: Tile0_Tile0/Distribution_Tile0_eta_3.eps: c1_n2
%%Creator: ROOT Version 6.22/08
%%CreationDate: Tue Aug  3 22:33:28 2021
%%DocumentNeededResources: ProcSet (FontSetInit)
%%EndComments
%%BeginProlog
80 dict begin
/s {stroke} def /l {lineto} def /m {moveto} def /t {translate} def
/r {rotate} def /rl {roll}  def /R {repeat} def
/d {rlineto} def /rm {rmoveto} def /gr {grestore} def /f {eofill} def
/c {setrgbcolor} def /black {0 setgray} def /sd {setdash} def
/cl {closepath} def /sf {scalefont setfont} def /lw {setlinewidth} def
/box {m dup 0 exch d exch 0 d 0 exch neg d cl} def
/NC{systemdict begin initclip end}def/C{NC box clip newpath}def
/bl {box s} def /bf {gsave box gsave f grestore 1 lw [] 0 sd s grestore} def /Y { 0 exch d} def /X { 0 d} def 
/K {{pop pop 0 moveto} exch kshow} bind def
/ita {/ang 15 def gsave [1 0 ang dup sin exch cos div 1 0 0] concat} def 
/mp {newpath /y exch def /x exch def} def
/side {[w .77 mul w .23 mul] .385 w mul sd w 0 l currentpoint t -144 r} def
/mr {mp x y w2 0 360 arc} def /m24 {mr s} def /m20 {mr f} def
/mb {mp x y w2 add m w2 neg 0 d 0 w neg d w 0 d 0 w d cl} def
/mt {mp x y w2 add m w2 neg w neg d w 0 d cl} def
/w4 {w 4 div} def
/w6 {w 6 div} def
/w8 {w 8 div} def
/m21 {mb f} def /m25 {mb s} def /m22 {mt f} def /m26{mt s} def
/m23 {mp x y w2 sub m w2 w d w neg 0 d cl f} def
/m27 {mp x y w2 add m w3 neg w2 neg d w3 w2 neg d w3 w2 d cl s} def
/m28 {mp x w2 sub y w2 sub w3 add m w3 0 d  0 w3 neg d w3 0 d 0 w3 d w3 0 d  0 w3 d w3 neg 0 d 0 w3 d w3 neg 0 d 0 w3 neg d w3 neg 0 d cl s } def
/m29 {mp gsave x w2 sub y w2 add w3 sub m currentpoint t 4 {side} repeat cl fill gr} def
/m30 {mp gsave x w2 sub y w2 add w3 sub m currentpoint t 4 {side} repeat cl s gr} def
/m31 {mp x y w2 sub m 0 w d x w2 sub y m w 0 d x w2 .707 mul sub y w2 .707 mul add m w 1.44 div w 1.44 div neg d x w2 .707 mul sub y w2 .707 mul sub m w 1.44 div w 1.44 div d s} def
/m32 {mp x y w2 sub m w2 w d w neg 0 d cl s} def
/m33 {mp x y w2 add m w3 neg w2 neg d w3 w2 neg d w3 w2 d cl f} def
/m34 {mp x w2 sub y w2 sub w3 add m w3 0 d  0 w3 neg d w3 0 d 0 w3 d w3 0 d  0 w3 d w3 neg 0 d 0 w3 d w3 neg 0 d 0 w3 neg d w3 neg 0 d cl f } def
/m35 {mp x y w2 add m w2 neg w2 neg d w2 w2 neg d w2 w2 d w2 neg w2 d x y w2 sub m 0 w d x w2 sub y m w 0 d s} def
/m36 {mb x w2 sub y w2 add m w w neg d x w2 sub y w2 sub m w w d s} def
/m37 {mp x y m w4 neg w2 d w4 neg w2 neg d w2 0 d  w4 neg w2 neg d w2 0 d w4 neg w2 d w2 0 d w4 neg w2 d w4 neg w2 neg d cl s} def
/m38 {mp x w4 sub y w2 add m w4 neg w4 neg d 0 w2 neg d w4 w4 neg d w2 0 d w4 w4 d 0 w2 d w4 neg w4 d w2 neg 0 d x y w2 sub m 0 w d x w2 sub y m w 0 d cl s} def
/m39 {mp x y m w4 neg w2 d w4 neg w2 neg d w2 0 d  w4 neg w2 neg d w2 0 d w4 neg w2 d w2 0 d w4 neg w2 d w4 neg w2 neg d cl f} def
/m40 {mp x y m w4 w2 d w4 w4 neg d w2 neg w4 neg d w2 w4 neg d w4 neg w4 neg d w4 neg w2 d w4 neg w2 neg d w4 neg w4 d w2 w4 d w2 neg w4 d w4 w4 d w4 w2 neg d cl s} def
/m41 {mp x y m w4 w2 d w4 w4 neg d w2 neg w4 neg d w2 w4 neg d w4 neg w4 neg d w4 neg w2 d w4 neg w2 neg d w4 neg w4 d w2 w4 d w2 neg w4 d w4 w4 d w4 w2 neg d cl f} def
/m42 {mp x y w2 add m w8 neg w2 -3 4 div mul d w2 -3 4 div mul w8 neg d w2 3 4 div mul w8 neg d w8 w2 -3 4 div mul d w8 w2 3 4 div mul d w2 3 4 div mul w8 d w2 -3 4 div mul w8 d w8 neg w2 3 4 div mul d cl s} def
/m43 {mp x y w2 add m w8 neg w2 -3 4 div mul d w2 -3 4 div mul w8 neg d w2 3 4 div mul w8 neg d w8 w2 -3 4 div mul d w8 w2 3 4 div mul d w2 3 4 div mul w8 d w2 -3 4 div mul w8 d w8 neg w2 3 4 div mul d cl f} def
/m44 {mp x y m w6 neg w2 d w2 2 3 div mul 0 d w6 neg w2 neg d w2 w6 d 0 w2 -2 3 div mul d w2 neg w6 d w6 w2 neg d w2 -2 3 div mul 0 d w6 w2 d w2 neg w6 neg d 0 w2 2 3 div mul d w2 w6 neg d cl s} def
/m45 {mp x y m w6 neg w2 d w2 2 3 div mul 0 d w6 neg w2 neg d w2 w6 d 0 w2 -2 3 div mul d w2 neg w6 d w6 w2 neg d w2 -2 3 div mul 0 d w6 w2 d w2 neg w6 neg d 0 w2 2 3 div mul d w2 w6 neg d cl f} def
/m46 {mp x y w4 add m w4 neg w4 d w4 neg w4 neg d  w4 w4 neg d w4 neg w4 neg d w4 w4 neg d w4 w4 d w4 w4 neg d w4 w4 d w4 neg w4 d w4 w4 d w4 neg w4 d w4 neg w4 neg d cl s} def
/m47 {mp x y w4 add m w4 neg w4 d w4 neg w4 neg d w4 w4 neg d w4 neg w4 neg d  w4 w4 neg d w4 w4 d w4 w4 neg d w4 w4 d w4 neg w4 d w4 w4 d w4 neg w4 d w4 neg w4 neg d cl f} def
/m48 {mp x y w4 add m w4 neg w4 d w4 neg w4 neg d w4 w4 neg d  w4 neg w4 neg d w4 w4 neg d w4 w4 d w4 w4 neg d w4 w4 d w4 neg w4 d w4 w4 d w4 neg w4 d w4 neg w4 neg d  w4 w4 neg d w4 neg w4 neg d w4 neg w4 d w4 w4 d cl f} def
/m49 {mp x w2 sub w3 add y w2 sub w3 add m  0 w3 neg d w3 0 d 0 w3 d w3 0 d 0 w3 d w3 neg 0 d 0 w3 d w3 neg 0 d 0 w3 neg d w3 neg 0 d 0 w3 neg d w3 0 d 0 w3 d w3 0 d 0 w3 neg d w3 neg 0 d cl f } def
/m2 {mp x y w2 sub m 0 w d x w2 sub y m w 0 d s} def
/m5 {mp x w2 .707 mul sub y w2 .707 mul sub m w 1.44 div w 1.44 div d x w2 .707 mul sub y w2 .707 mul add m w 1.44 div w 1.44 div neg d s} def
%%IncludeResource: ProcSet (FontSetInit)
%%IncludeResource: font Times-Roman
%%IncludeResource: font Times-Italic
%%IncludeResource: font Times-Bold
%%IncludeResource: font Times-BoldItalic
%%IncludeResource: font Helvetica
%%IncludeResource: font Helvetica-Oblique
%%IncludeResource: font Helvetica-Bold
%%IncludeResource: font Helvetica-BoldOblique
%%IncludeResource: font Courier
%%IncludeResource: font Courier-Oblique
%%IncludeResource: font Courier-Bold
%%IncludeResource: font Courier-BoldOblique
%%IncludeResource: font Symbol
%%IncludeResource: font ZapfDingbats
/reEncode {exch findfont dup length dict begin {1 index /FID eq  {pop pop} {def} ifelse } forall /Encoding exch def currentdict end dup /FontName get exch definefont pop } def [/Times-Bold /Times-Italic /Times-BoldItalic /Helvetica /Helvetica-Oblique
 /Helvetica-Bold /Helvetica-BoldOblique /Courier /Courier-Oblique /Courier-Bold /Courier-BoldOblique /Times-Roman /AvantGarde-Book /AvantGarde-BookOblique /AvantGarde-Demi /AvantGarde-DemiOblique /Bookman-Demi /Bookman-DemiItalic /Bookman-Light
 /Bookman-LightItalic /Helvetica-Narrow /Helvetica-Narrow-Bold /Helvetica-Narrow-BoldOblique /Helvetica-Narrow-Oblique /NewCenturySchlbk-Roman /NewCenturySchlbk-Bold /NewCenturySchlbk-BoldItalic /NewCenturySchlbk-Italic /Palatino-Bold
 /Palatino-BoldItalic /Palatino-Italic /Palatino-Roman ] {ISOLatin1Encoding reEncode } forall
%%EndProlog
%%BeginSetup
%%EndSetup
newpath  gsave  .25 .25 scale  gsave  0 0 t 1 0 0 c[  ] 0 sd 3 lw 1 1 1 c 2268 1538 0 0 bf black 1 1 1 c 1905 1276 295 231 bf black 1905 1276 295 231 bl 1 1 1 c 1905 1276 295 231 bf black 1905 1276 295 231 bl 0 0 1 c 6 lw 1 1 1 c 0 0 1 c 3 lw /w 31
 def /w2 {w 2 div} def /w3 {w 3 div} def 302 231 m20 6 lw 3 lw 315 232 m20 6 lw 3 lw 329 232 m20 6 lw 3 lw 342 234 m20 6 lw 3 lw 356 233 m20 6 lw 3 lw 370 237 m20 6 lw 3 lw 383 236 m20 6 lw 3 lw 397 234 m20 6 lw 3 lw 410 236 m20 6 lw 3 lw 424 240 m20
 6 lw 3 lw 438 236 m20 6 lw 3 lw 451 245 m20 6 lw 3 lw 465 249 m20 6 lw 3 lw 478 254 m20 6 lw 3 lw 492 248 m20 6 lw 3 lw 506 259 m20 6 lw 3 lw 519 261 m20 6 lw 3 lw 533 278 m20 6 lw 3 lw 547 299 m20 6 lw 560 463 m 2 Y s 560 491 m 1 Y s 3 lw 560 478
 m20 6 lw 574 637 m 6 Y s 574 669 m 6 Y s 3 lw 574 656 m20 6 lw 3 lw 587 376 m20 6 lw 3 lw 601 371 m20 6 lw 3 lw 615 351 m20 6 lw 3 lw 628 377 m20 6 lw 3 lw 642 388 m20 6 lw 3 lw 655 386 m20 6 lw 3 lw 669 413 m20 6 lw 3 lw 683 410 m20 6 lw 3 lw 696
 410 m20 6 lw 3 lw 710 423 m20 6 lw 3 lw 723 382 m20 6 lw 737 417 m s 737 443 m s 3 lw 737 430 m20 6 lw 3 lw 751 425 m20 6 lw 3 lw 764 394 m20 6 lw 3 lw 778 416 m20 6 lw 3 lw 791 418 m20 6 lw 3 lw 805 392 m20 6 lw 3 lw 819 420 m20 6 lw 3 lw 832 388
 m20 6 lw 3 lw 846 423 m20 6 lw 3 lw 859 412 m20 6 lw 3 lw 873 408 m20 6 lw 3 lw 887 399 m20 6 lw 3 lw 900 384 m20 6 lw 3 lw 914 384 m20 6 lw 3 lw 927 373 m20 6 lw 3 lw 941 376 m20 6 lw 3 lw 955 367 m20 6 lw 3 lw 968 357 m20 6 lw 3 lw 982 356 m20 6
 lw 3 lw 996 364 m20 6 lw 3 lw 1009 347 m20 6 lw 3 lw 1023 377 m20 6 lw 3 lw 1036 343 m20 6 lw 3 lw 1050 324 m20 6 lw 3 lw 1064 355 m20 6 lw 3 lw 1077 347 m20 6 lw 3 lw 1091 320 m20 6 lw 3 lw 1104 329 m20 6 lw 3 lw 1118 330 m20 6 lw 3 lw 1132 330 m20
 6 lw 3 lw 1145 335 m20 6 lw 3 lw 1159 318 m20 6 lw 3 lw 1172 329 m20 6 lw 3 lw 1186 318 m20 6 lw 3 lw 1200 318 m20 6 lw 3 lw 1213 306 m20 6 lw 3 lw 1227 304 m20 6 lw 3 lw 1240 289 m20 6 lw 3 lw 1254 298 m20 6 lw 3 lw 1268 299 m20 6 lw 3 lw 1281 295
 m20 6 lw 3 lw 1295 278 m20 6 lw 3 lw 1308 277 m20 6 lw 3 lw 1322 293 m20 6 lw 3 lw 1336 281 m20 6 lw 3 lw 1349 278 m20 6 lw 3 lw 1363 275 m20 6 lw 3 lw 1377 274 m20 6 lw 3 lw 1390 274 m20 6 lw 3 lw 1404 266 m20 6 lw 3 lw 1417 266 m20 6 lw 3 lw 1431
 266 m20 6 lw 3 lw 1445 271 m20 6 lw 3 lw 1458 266 m20 6 lw 3 lw 1472 264 m20 6 lw 3 lw 1485 257 m20 6 lw 3 lw 1499 262 m20 6 lw 3 lw 1513 252 m20 6 lw 3 lw 1526 258 m20 6 lw 3 lw 1540 255 m20 6 lw 3 lw 1553 260 m20 6 lw 3 lw 1567 255 m20 6 lw 3 lw
 1581 250 m20 6 lw 3 lw 1594 249 m20 6 lw 3 lw 1608 245 m20 6 lw 3 lw 1621 251 m20 6 lw 3 lw 1635 248 m20 6 lw 3 lw 1649 248 m20 6 lw 3 lw 1662 245 m20 6 lw 3 lw 1676 255 m20 6 lw 3 lw 1689 245 m20 6 lw 3 lw 1703 238 m20 6 lw 3 lw 1717 244 m20 6 lw 3
 lw 1730 245 m20 6 lw 3 lw 1744 242 m20 6 lw 3 lw 1757 246 m20 6 lw 3 lw 1771 243 m20 6 lw 3 lw 1785 238 m20 6 lw 3 lw 1798 238 m20 6 lw 3 lw 1812 236 m20 6 lw 3 lw 1826 239 m20 6 lw 3 lw 1839 238 m20 6 lw 3 lw 1853 240 m20 6 lw 3 lw 1866 238 m20 6
 lw 3 lw 1880 234 m20 6 lw 3 lw 1894 236 m20 6 lw 3 lw 1907 237 m20 6 lw 3 lw 1921 234 m20 6 lw 3 lw 1934 234 m20 6 lw 3 lw 1948 235 m20 6 lw 3 lw 1962 238 m20 6 lw 3 lw 1975 235 m20 6 lw 3 lw 1989 234 m20 6 lw 3 lw 2002 233 m20 6 lw 3 lw 2016 232
 m20 6 lw 3 lw 2030 234 m20 6 lw 3 lw 2043 231 m20 6 lw 3 lw 2057 232 m20 6 lw 3 lw 2070 232 m20 6 lw 3 lw 2084 236 m20 6 lw 3 lw 2098 235 m20 6 lw 3 lw 2111 234 m20 6 lw 3 lw 2125 232 m20 6 lw 3 lw 2138 234 m20 6 lw 3 lw 2152 235 m20 6 lw 3 lw 2166
 231 m20 6 lw 3 lw 2179 232 m20 6 lw 3 lw 2193 234 m20 6 lw black 3 lw 295 231 m 1905 X s 295 269 m -38 Y s 349 250 m -19 Y s 404 250 m -19 Y s 458 250 m -19 Y s 513 250 m -19 Y s 567 269 m -38 Y s 621 250 m -19 Y s 676 250 m -19 Y s 730 250 m -19 Y
 s 785 250 m -19 Y s 839 269 m -38 Y s 893 250 m -19 Y s 948 250 m -19 Y s 1002 250 m -19 Y s 1057 250 m -19 Y s 1111 269 m -38 Y s 1166 250 m -19 Y s 1220 250 m -19 Y s 1274 250 m -19 Y s 1329 250 m -19 Y s 1383 269 m -38 Y s 1438 250 m -19 Y s 1492
 250 m -19 Y s 1547 250 m -19 Y s 1601 250 m -19 Y s 1655 269 m -38 Y s 1710 250 m -19 Y s 1764 250 m -19 Y s 1819 250 m -19 Y s 1873 250 m -19 Y s 1928 269 m -38 Y s 1982 250 m -19 Y s 2036 250 m -19 Y s 2091 250 m -19 Y s 2145 250 m -19 Y s 2200
 269 m -38 Y s
 gsave  2268 1538 0 0 C 267.173 162.911 t 0 r /Helvetica findfont 71.6807 sf 0 0 m (0.1) show NC gr 
 gsave  2268 1538 0 0 C 231.333 162.911 t 0 r /Symbol findfont 71.6807 sf 0 0 m (-) show NC gr 
 gsave  2268 1538 0 0 C 547.38 162.911 t 0 r /Helvetica findfont 71.6807 sf 0 0 m (0) show NC gr 
 gsave  2268 1538 0 0 C 795.004 162.911 t 0 r /Helvetica findfont 71.6807 sf 0 0 m (0.1) show NC gr 
 gsave  2268 1538 0 0 C 1062.18 162.911 t 0 r /Helvetica findfont 71.6807 sf 0 0 m (0.2) show NC gr 
 gsave  2268 1538 0 0 C 1332.61 162.911 t 0 r /Helvetica findfont 71.6807 sf 0 0 m (0.3) show NC gr 
 gsave  2268 1538 0 0 C 1606.3 162.911 t 0 r /Helvetica findfont 71.6807 sf 0 0 m (0.4) show NC gr 
 gsave  2268 1538 0 0 C 1876.73 162.911 t 0 r /Helvetica findfont 71.6807 sf 0 0 m (0.5) show NC gr 
 gsave  2268 1538 0 0 C 2150.42 162.911 t 0 r /Helvetica findfont 71.6807 sf 0 0 m (0.6) show NC gr 
 gsave  2268 1538 0 0 C 2095.03 19.5493 t 0 r /Helvetica findfont 48.8732 sf 0 0 m (Tile0) show NC gr 
 gsave  2268 1538 0 0 C 2075.48 42.3568 t 0 r /Helvetica findfont 71.6807 sf 0 0 m (f) show NC gr  295 1507 m 1905 X s 295 1468 m 39 Y s 349 1488 m 19 Y s 404 1488 m 19 Y s 458 1488 m 19 Y s 513 1488 m 19 Y s 567 1468 m 39 Y s 621 1488 m 19 Y s 676
 1488 m 19 Y s 730 1488 m 19 Y s 785 1488 m 19 Y s 839 1468 m 39 Y s 893 1488 m 19 Y s 948 1488 m 19 Y s 1002 1488 m 19 Y s 1057 1488 m 19 Y s 1111 1468 m 39 Y s 1166 1488 m 19 Y s 1220 1488 m 19 Y s 1274 1488 m 19 Y s 1329 1488 m 19 Y s 1383 1468 m
 39 Y s 1438 1488 m 19 Y s 1492 1488 m 19 Y s 1547 1488 m 19 Y s 1601 1488 m 19 Y s 1655 1468 m 39 Y s 1710 1488 m 19 Y s 1764 1488 m 19 Y s 1819 1488 m 19 Y s 1873 1488 m 19 Y s 1928 1468 m 39 Y s 1982 1488 m 19 Y s 2036 1488 m 19 Y s 2091 1488 m 19
 Y s 2145 1488 m 19 Y s 2200 1468 m 39 Y s 295 231 m 1276 Y s 351 231 m -56 X s 323 276 m -28 X s 323 322 m -28 X s 323 367 m -28 X s 351 413 m -56 X s 323 458 m -28 X s 323 504 m -28 X s 323 549 m -28 X s 351 595 m -56 X s 323 640 m -28 X s 323 686
 m -28 X s 323 731 m -28 X s 351 777 m -56 X s 323 822 m -28 X s 323 868 m -28 X s 323 913 m -28 X s 351 959 m -56 X s 323 1004 m -28 X s 323 1050 m -28 X s 323 1095 m -28 X s 351 1141 m -56 X s 323 1186 m -28 X s 323 1232 m -28 X s 323 1277 m -28 X
 s 351 1323 m -56 X s 323 1368 m -28 X s 323 1414 m -28 X s 323 1459 m -28 X s 351 1505 m -56 X s 351 1505 m -56 X s
 gsave  2268 1538 0 0 C 244.366 205.267 t 0 r /Helvetica findfont 71.6807 sf 0 0 m (0) show NC gr 
 gsave  2268 1538 0 0 C 146.62 387.727 t 0 r /Helvetica findfont 71.6807 sf 0 0 m (0.02) show NC gr 
 gsave  2268 1538 0 0 C 146.62 570.187 t 0 r /Helvetica findfont 71.6807 sf 0 0 m (0.04) show NC gr 
 gsave  2268 1538 0 0 C 146.62 752.647 t 0 r /Helvetica findfont 71.6807 sf 0 0 m (0.06) show NC gr 
 gsave  2268 1538 0 0 C 146.62 935.107 t 0 r /Helvetica findfont 71.6807 sf 0 0 m (0.08) show NC gr 
 gsave  2268 1538 0 0 C 198.751 1117.57 t 0 r /Helvetica findfont 71.6807 sf 0 0 m (0.1) show NC gr 
 gsave  2268 1538 0 0 C 146.62 1296.77 t 0 r /Helvetica findfont 71.6807 sf 0 0 m (0.12) show NC gr 
 gsave  2268 1538 0 0 C 146.62 1479.23 t 0 r /Helvetica findfont 71.6807 sf 0 0 m (0.14) show NC gr 
 gsave  2268 1538 0 0 C 156.394 925.333 t 90 r /Helvetica findfont 71.6807 sf 0 0 m (Normalized entries) show NC gr  2200 231 m 1276 Y s 2143 231 m 57 X s 2171 276 m 29 X s 2171 322 m 29 X s 2171 367 m 29 X s 2143 413 m 57 X s 2171 458 m 29 X s 2171
 504 m 29 X s 2171 549 m 29 X s 2143 595 m 57 X s 2171 640 m 29 X s 2171 686 m 29 X s 2171 731 m 29 X s 2143 777 m 57 X s 2171 822 m 29 X s 2171 868 m 29 X s 2171 913 m 29 X s 2143 959 m 57 X s 2171 1004 m 29 X s 2171 1050 m 29 X s 2171 1095 m 29 X s
 2143 1141 m 57 X s 2171 1186 m 29 X s 2171 1232 m 29 X s 2171 1277 m 29 X s 2143 1323 m 57 X s 2171 1368 m 29 X s 2171 1414 m 29 X s 2171 1459 m 29 X s 2143 1505 m 57 X s 2143 1505 m 57 X s 1 0 0 c 6 lw 1 1 1 c 1 0 0 c 3 lw 356 231 m20 6 lw 3 lw 397
 231 m20 6 lw 3 lw 410 231 m20 6 lw 3 lw 424 231 m20 6 lw 3 lw 438 231 m20 6 lw 3 lw 451 231 m20 6 lw 3 lw 465 231 m20 6 lw 3 lw 478 231 m20 6 lw 3 lw 492 231 m20 6 lw 3 lw 506 232 m20 6 lw 3 lw 519 233 m20 6 lw 3 lw 533 234 m20 6 lw 3 lw 547 238 m20
 6 lw 3 lw 560 252 m20 6 lw 3 lw 574 282 m20 6 lw 3 lw 587 279 m20 6 lw 3 lw 601 287 m20 6 lw 3 lw 615 294 m20 6 lw 3 lw 628 304 m20 6 lw 3 lw 642 318 m20 6 lw 3 lw 655 331 m20 6 lw 3 lw 669 345 m20 6 lw 3 lw 683 351 m20 6 lw 3 lw 696 363 m20 6 lw 3
 lw 710 373 m20 6 lw 3 lw 723 382 m20 6 lw 3 lw 737 386 m20 6 lw 3 lw 751 402 m20 6 lw 3 lw 764 399 m20 6 lw 3 lw 778 413 m20 6 lw 3 lw 791 412 m20 6 lw 3 lw 805 426 m20 6 lw 3 lw 819 441 m20 6 lw 3 lw 832 427 m20 6 lw 3 lw 846 434 m20 6 lw 3 lw 859
 438 m20 6 lw 3 lw 873 446 m20 6 lw 3 lw 887 444 m20 6 lw 3 lw 900 428 m20 6 lw 3 lw 914 433 m20 6 lw 3 lw 927 431 m20 6 lw 3 lw 941 423 m20 6 lw 3 lw 955 426 m20 6 lw 3 lw 968 425 m20 6 lw 3 lw 982 425 m20 6 lw 3 lw 996 411 m20 6 lw 3 lw 1009 409
 m20 6 lw 3 lw 1023 413 m20 6 lw 3 lw 1036 396 m20 6 lw 3 lw 1050 392 m20 6 lw 3 lw 1064 395 m20 6 lw 3 lw 1077 387 m20 6 lw 3 lw 1091 392 m20 6 lw 3 lw 1104 374 m20 6 lw 3 lw 1118 378 m20 6 lw 3 lw 1132 368 m20 6 lw 3 lw 1145 357 m20 6 lw 3 lw 1159
 351 m20 6 lw 3 lw 1172 353 m20 6 lw 3 lw 1186 341 m20 6 lw 3 lw 1200 340 m20 6 lw 3 lw 1213 335 m20 6 lw 3 lw 1227 336 m20 6 lw 3 lw 1240 330 m20 6 lw 3 lw 1254 317 m20 6 lw 3 lw 1268 315 m20 6 lw 3 lw 1281 311 m20 6 lw 3 lw 1295 308 m20 6 lw 3 lw
 1308 301 m20 6 lw 3 lw 1322 302 m20 6 lw 3 lw 1336 292 m20 6 lw 3 lw 1349 294 m20 6 lw 3 lw 1363 292 m20 6 lw 3 lw 1377 288 m20 6 lw 3 lw 1390 282 m20 6 lw 3 lw 1404 278 m20 6 lw 3 lw 1417 277 m20 6 lw 3 lw 1431 271 m20 6 lw 3 lw 1445 271 m20 6 lw 3
 lw 1458 271 m20 6 lw 3 lw 1472 267 m20 6 lw 3 lw 1485 268 m20 6 lw 3 lw 1499 263 m20 6 lw 3 lw 1513 259 m20 6 lw 3 lw 1526 261 m20 6 lw 3 lw 1540 256 m20 6 lw 3 lw 1553 258 m20 6 lw 3 lw 1567 253 m20 6 lw 3 lw 1581 251 m20 6 lw 3 lw 1594 253 m20 6
 lw 3 lw 1608 250 m20 6 lw 3 lw 1621 253 m20 6 lw 3 lw 1635 248 m20 6 lw 3 lw 1649 251 m20 6 lw 3 lw 1662 247 m20 6 lw 3 lw 1676 250 m20 6 lw 3 lw 1689 243 m20 6 lw 3 lw 1703 247 m20 6 lw 3 lw 1717 243 m20 6 lw 3 lw 1730 241 m20 6 lw 3 lw 1744 239
 m20 6 lw 3 lw 1757 239 m20 6 lw 3 lw 1771 241 m20 6 lw 3 lw 1785 239 m20 6 lw 3 lw 1798 238 m20 6 lw 3 lw 1812 239 m20 6 lw 3 lw 1826 238 m20 6 lw 3 lw 1839 236 m20 6 lw 3 lw 1853 237 m20 6 lw 3 lw 1866 235 m20 6 lw 3 lw 1880 239 m20 6 lw 3 lw 1894
 235 m20 6 lw 3 lw 1907 236 m20 6 lw 3 lw 1921 235 m20 6 lw 3 lw 1934 234 m20 6 lw 3 lw 1948 234 m20 6 lw 3 lw 1962 235 m20 6 lw 3 lw 1975 235 m20 6 lw 3 lw 1989 234 m20 6 lw 3 lw 2002 234 m20 6 lw 3 lw 2016 235 m20 6 lw 3 lw 2030 233 m20 6 lw 3 lw
 2043 232 m20 6 lw 3 lw 2057 233 m20 6 lw 3 lw 2070 232 m20 6 lw 3 lw 2084 232 m20 6 lw 3 lw 2098 232 m20 6 lw 3 lw 2111 233 m20 6 lw 3 lw 2125 232 m20 6 lw 3 lw 2138 232 m20 6 lw 3 lw 2152 232 m20 6 lw 3 lw 2166 232 m20 6 lw 3 lw 2179 232 m20 6 lw 3
 lw 2193 232 m20 6 lw black 1 1 1 c black 3 lw 560 231 m20 6 lw 3 lw 574 237 m20 6 lw 3 lw 587 240 m20 6 lw 3 lw 601 245 m20 6 lw 3 lw 615 253 m20 6 lw 3 lw 628 255 m20 6 lw 3 lw 642 258 m20 6 lw 3 lw 655 261 m20 6 lw 3 lw 669 278 m20 6 lw 3 lw 683
 274 m20 6 lw 3 lw 696 289 m20 6 lw 3 lw 710 289 m20 6 lw 3 lw 723 304 m20 6 lw 3 lw 737 305 m20 6 lw 3 lw 751 324 m20 6 lw 3 lw 764 338 m20 6 lw 3 lw 778 346 m20 6 lw 3 lw 791 349 m20 6 lw 3 lw 805 359 m20 6 lw 3 lw 819 387 m20 6 lw 3 lw 832 386 m20
 6 lw 3 lw 846 396 m20 6 lw 3 lw 859 398 m20 6 lw 3 lw 873 422 m20 6 lw 3 lw 887 424 m20 6 lw 3 lw 900 439 m20 6 lw 3 lw 914 436 m20 6 lw 3 lw 927 442 m20 6 lw 3 lw 941 450 m20 6 lw 3 lw 955 451 m20 6 lw 3 lw 968 461 m20 6 lw 3 lw 982 464 m20 6 lw 3
 lw 996 448 m20 6 lw 3 lw 1009 457 m20 6 lw 3 lw 1023 457 m20 6 lw 3 lw 1036 463 m20 6 lw 3 lw 1050 456 m20 6 lw 3 lw 1064 451 m20 6 lw 3 lw 1077 444 m20 6 lw 3 lw 1091 443 m20 6 lw 3 lw 1104 436 m20 6 lw 3 lw 1118 434 m20 6 lw 3 lw 1132 409 m20 6 lw
 3 lw 1145 420 m20 6 lw 3 lw 1159 403 m20 6 lw 3 lw 1172 395 m20 6 lw 3 lw 1186 405 m20 6 lw 3 lw 1200 389 m20 6 lw 3 lw 1213 367 m20 6 lw 3 lw 1227 379 m20 6 lw 3 lw 1240 366 m20 6 lw 3 lw 1254 350 m20 6 lw 3 lw 1268 359 m20 6 lw 3 lw 1281 343 m20 6
 lw 3 lw 1295 338 m20 6 lw 3 lw 1308 327 m20 6 lw 3 lw 1322 318 m20 6 lw 3 lw 1336 319 m20 6 lw 3 lw 1349 306 m20 6 lw 3 lw 1363 310 m20 6 lw 3 lw 1377 294 m20 6 lw 3 lw 1390 298 m20 6 lw 3 lw 1404 300 m20 6 lw 3 lw 1417 288 m20 6 lw 3 lw 1431 281
 m20 6 lw 3 lw 1445 277 m20 6 lw 3 lw 1458 272 m20 6 lw 3 lw 1472 272 m20 6 lw 3 lw 1485 276 m20 6 lw 3 lw 1499 267 m20 6 lw 3 lw 1513 266 m20 6 lw 3 lw 1526 261 m20 6 lw 3 lw 1540 254 m20 6 lw 3 lw 1553 259 m20 6 lw 3 lw 1567 255 m20 6 lw 3 lw 1581
 256 m20 6 lw 3 lw 1594 254 m20 6 lw 3 lw 1608 249 m20 6 lw 3 lw 1621 249 m20 6 lw 3 lw 1635 249 m20 6 lw 3 lw 1649 247 m20 6 lw 3 lw 1662 247 m20 6 lw 3 lw 1676 243 m20 6 lw 3 lw 1689 245 m20 6 lw 3 lw 1703 240 m20 6 lw 3 lw 1717 243 m20 6 lw 3 lw
 1730 241 m20 6 lw 3 lw 1744 240 m20 6 lw 3 lw 1757 239 m20 6 lw 3 lw 1771 238 m20 6 lw 3 lw 1785 238 m20 6 lw 3 lw 1798 238 m20 6 lw 3 lw 1812 237 m20 6 lw 3 lw 1826 236 m20 6 lw 3 lw 1839 235 m20 6 lw 3 lw 1853 234 m20 6 lw 3 lw 1866 234 m20 6 lw 3
 lw 1880 234 m20 6 lw 3 lw 1894 234 m20 6 lw 3 lw 1907 232 m20 6 lw 3 lw 1921 234 m20 6 lw 3 lw 1934 235 m20 6 lw 3 lw 1948 235 m20 6 lw 3 lw 1962 234 m20 6 lw 3 lw 1975 233 m20 6 lw 3 lw 1989 232 m20 6 lw 3 lw 2002 234 m20 6 lw 3 lw 2016 232 m20 6
 lw 3 lw 2030 233 m20 6 lw 3 lw 2043 232 m20 6 lw 3 lw 2057 231 m20 6 lw 3 lw 2070 231 m20 6 lw 3 lw 2084 232 m20 6 lw 3 lw 2098 233 m20 6 lw 3 lw 2111 232 m20 6 lw 3 lw 2125 231 m20 6 lw 3 lw 2138 232 m20 6 lw 3 lw 2152 231 m20 6 lw 3 lw 2166 231
 m20 6 lw 3 lw 2179 231 m20 6 lw 3 lw 2193 232 m20 6 lw 0 0.6 0 c 1 1 1 c 0 0.6 0 c 3 lw 560 231 m20 6 lw 3 lw 574 234 m20 6 lw 3 lw 587 238 m20 6 lw 3 lw 601 242 m20 6 lw 3 lw 615 245 m20 6 lw 3 lw 628 248 m20 6 lw 3 lw 642 252 m20 6 lw 3 lw 655 258
 m20 6 lw 3 lw 669 262 m20 6 lw 3 lw 683 270 m20 6 lw 3 lw 696 276 m20 6 lw 3 lw 710 281 m20 6 lw 3 lw 723 291 m20 6 lw 3 lw 737 294 m20 6 lw 3 lw 751 301 m20 6 lw 3 lw 764 310 m20 6 lw 3 lw 778 320 m20 6 lw 3 lw 791 332 m20 6 lw 3 lw 805 338 m20 6
 lw 3 lw 819 345 m20 6 lw 3 lw 832 364 m20 6 lw 3 lw 846 362 m20 6 lw 3 lw 859 381 m20 6 lw 3 lw 873 397 m20 6 lw 3 lw 887 403 m20 6 lw 3 lw 900 413 m20 6 lw 3 lw 914 422 m20 6 lw 3 lw 927 433 m20 6 lw 3 lw 941 436 m20 6 lw 3 lw 955 451 m20 6 lw 3 lw
 968 447 m20 6 lw 3 lw 982 461 m20 6 lw 3 lw 996 460 m20 6 lw 3 lw 1009 470 m20 6 lw 3 lw 1023 477 m20 6 lw 3 lw 1036 476 m20 6 lw 3 lw 1050 467 m20 6 lw 3 lw 1064 477 m20 6 lw 3 lw 1077 493 m20 6 lw 3 lw 1091 461 m20 6 lw 3 lw 1104 463 m20 6 lw 3 lw
 1118 462 m20 6 lw 3 lw 1132 448 m20 6 lw 3 lw 1145 449 m20 6 lw 3 lw 1159 428 m20 6 lw 3 lw 1172 419 m20 6 lw 3 lw 1186 411 m20 6 lw 3 lw 1200 400 m20 6 lw 3 lw 1213 402 m20 6 lw 3 lw 1227 390 m20 6 lw 3 lw 1240 381 m20 6 lw 3 lw 1254 375 m20 6 lw 3
 lw 1268 362 m20 6 lw 3 lw 1281 352 m20 6 lw 3 lw 1295 347 m20 6 lw 3 lw 1308 341 m20 6 lw 3 lw 1322 335 m20 6 lw 3 lw 1336 321 m20 6 lw 3 lw 1349 318 m20 6 lw 3 lw 1363 309 m20 6 lw 3 lw 1377 301 m20 6 lw 3 lw 1390 304 m20 6 lw 3 lw 1404 291 m20 6
 lw 3 lw 1417 289 m20 6 lw 3 lw 1431 287 m20 6 lw 3 lw 1445 276 m20 6 lw 3 lw 1458 277 m20 6 lw 3 lw 1472 276 m20 6 lw 3 lw 1485 268 m20 6 lw 3 lw 1499 268 m20 6 lw 3 lw 1513 262 m20 6 lw 3 lw 1526 260 m20 6 lw 3 lw 1540 259 m20 6 lw 3 lw 1553 255
 m20 6 lw 3 lw 1567 254 m20 6 lw 3 lw 1581 249 m20 6 lw 3 lw 1594 247 m20 6 lw 3 lw 1608 251 m20 6 lw 3 lw 1621 246 m20 6 lw 3 lw 1635 246 m20 6 lw 3 lw 1649 245 m20 6 lw 3 lw 1662 243 m20 6 lw 3 lw 1676 243 m20 6 lw 3 lw 1689 241 m20 6 lw 3 lw 1703
 242 m20 6 lw 3 lw 1717 239 m20 6 lw 3 lw 1730 239 m20 6 lw 3 lw 1744 238 m20 6 lw 3 lw 1757 239 m20 6 lw 3 lw 1771 237 m20 6 lw 3 lw 1785 236 m20 6 lw 3 lw 1798 235 m20 6 lw 3 lw 1812 235 m20 6 lw 3 lw 1826 235 m20 6 lw 3 lw 1839 236 m20 6 lw 3 lw
 1853 234 m20 6 lw 3 lw 1866 234 m20 6 lw 3 lw 1880 233 m20 6 lw 3 lw 1894 234 m20 6 lw 3 lw 1907 233 m20 6 lw 3 lw 1921 234 m20 6 lw 3 lw 1934 233 m20 6 lw 3 lw 1948 233 m20 6 lw 3 lw 1962 232 m20 6 lw 3 lw 1975 233 m20 6 lw 3 lw 1989 232 m20 6 lw 3
 lw 2002 232 m20 6 lw 3 lw 2016 231 m20 6 lw 3 lw 2030 232 m20 6 lw 3 lw 2043 231 m20 6 lw 3 lw 2057 232 m20 6 lw 3 lw 2070 232 m20 6 lw 3 lw 2084 232 m20 6 lw 3 lw 2098 231 m20 6 lw 3 lw 2111 231 m20 6 lw 3 lw 2125 231 m20 6 lw 3 lw 2138 231 m20 6
 lw 3 lw 2152 231 m20 6 lw 3 lw 2166 231 m20 6 lw 3 lw 2179 231 m20 6 lw 3 lw 2193 231 m20 6 lw black
 gsave  2268 1538 0 0 C 1648.66 1394.52 t 0 r /Helvetica-Bold findfont 48.8732 sf 0 0 m ( < 40 GeV) show NC gr 
 gsave  2268 1538 0 0 C 1573.72 1420.58 t 0 r /Helvetica-Bold findfont 32.5821 sf 0 0 m (truth) show NC gr 
 gsave  2268 1538 0 0 C 1573.72 1368.45 t 0 r /Helvetica-Bold findfont 32.5821 sf 0 0 m (T) show NC gr 
 gsave  2268 1538 0 0 C 1433.61 1394.52 t 0 r /Helvetica-Bold findfont 48.8732 sf 0 0 m (30 < p) show NC gr  0 0 1 c 1275 1413 m 131 X s 3 lw 1341 1413 m20 6 lw black
 gsave  2268 1538 0 0 C 1648.66 1296.77 t 0 r /Helvetica-Bold findfont 48.8732 sf 0 0 m ( < 100 GeV) show NC gr 
 gsave  2268 1538 0 0 C 1573.72 1322.83 t 0 r /Helvetica-Bold findfont 32.5821 sf 0 0 m (truth) show NC gr 
 gsave  2268 1538 0 0 C 1573.72 1270.7 t 0 r /Helvetica-Bold findfont 32.5821 sf 0 0 m (T) show NC gr 
 gsave  2268 1538 0 0 C 1433.61 1296.77 t 0 r /Helvetica-Bold findfont 48.8732 sf 0 0 m (80 < p) show NC gr  1 0 0 c 1275 1317 m 131 X s 3 lw 1341 1317 m20 6 lw black
 gsave  2268 1538 0 0 C 1674.72 1202.28 t 0 r /Helvetica-Bold findfont 48.8732 sf 0 0 m ( < 400 GeV) show NC gr 
 gsave  2268 1538 0 0 C 1599.78 1228.35 t 0 r /Helvetica-Bold findfont 32.5821 sf 0 0 m (truth) show NC gr 
 gsave  2268 1538 0 0 C 1599.78 1176.21 t 0 r /Helvetica-Bold findfont 32.5821 sf 0 0 m (T) show NC gr 
 gsave  2268 1538 0 0 C 1433.61 1202.28 t 0 r /Helvetica-Bold findfont 48.8732 sf 0 0 m (350 < p) show NC gr  1275 1221 m 131 X s 3 lw 1341 1221 m20 6 lw
 gsave  2268 1538 0 0 C 1704.05 1104.53 t 0 r /Helvetica-Bold findfont 48.8732 sf 0 0 m ( < 1200 GeV) show NC gr 
 gsave  2268 1538 0 0 C 1629.11 1130.6 t 0 r /Helvetica-Bold findfont 32.5821 sf 0 0 m (truth) show NC gr 
 gsave  2268 1538 0 0 C 1629.11 1078.47 t 0 r /Helvetica-Bold findfont 32.5821 sf 0 0 m (T) show NC gr 
 gsave  2268 1538 0 0 C 1433.61 1104.53 t 0 r /Helvetica-Bold findfont 48.8732 sf 0 0 m (1000 < p) show NC gr  0 0.6 0 c 1275 1125 m 131 X s 3 lw 1341 1125 m20 6 lw black
 gsave  2268 1538 0 0 C 384.469 1417.32 t 0 r /Helvetica-BoldOblique findfont 61.9061 sf 0 0 m (ATLAS) show NC gr 
 gsave  2268 1538 0 0 C 632.093 1417.32 t 0 r /Helvetica findfont 58.6478 sf 0 0 m (Simulation Internal) show NC gr 
 gsave  2268 1538 0 0 C 746.131 1339.13 t 0 r /Helvetica findfont 58.6478 sf 0 0 m ( = 13 TeV) show NC gr 
 gsave  2268 1538 0 0 C 716.807 1339.13 t 0 r /Helvetica findfont 58.6478 sf 0 0 m (s) show NC gr  697 1372 m 7 -36 d s 3 lw 704 1336 m 6 52 d s 710 1388 m 36 X s
 gsave  2268 1538 0 0 C 384.469 1339.13 t 0 r /Helvetica findfont 58.6478 sf 0 0 m (Pythia Dijet ) show NC gr 
 gsave  2268 1538 0 0 C 384.469 1264.19 t 0 r /Helvetica findfont 58.6478 sf 0 0 m (EM+JES) show NC gr 
 gsave  2268 1538 0 0 C 938.365 1185.99 t 0 r /Helvetica findfont 58.6478 sf 0 0 m (| < 0.4) show NC gr 
 gsave  2268 1538 0 0 C 905.783 1185.99 t 0 r /Symbol findfont 58.6478 sf 0 0 m (h) show NC gr 
 gsave  2268 1538 0 0 C 720.065 1185.99 t 0 r /Helvetica findfont 58.6478 sf 0 0 m (, 0.3 < |) show NC gr 
 gsave  2268 1538 0 0 C 707.032 1169.7 t 0 r /Helvetica findfont 39.0986 sf 0 0 m (t) show NC gr 
 gsave  2268 1538 0 0 C 671.192 1185.99 t 0 r /Helvetica-Oblique findfont 58.6478 sf 0 0 m (k) show NC gr 
 gsave  2268 1538 0 0 C 430.084 1185.99 t 0 r /Helvetica findfont 58.6478 sf 0 0 m (=0.4 anti\255) show NC gr 
 gsave  2268 1538 0 0 C 384.469 1185.99 t 0 r /Helvetica-Oblique findfont 58.6478 sf 0 0 m (R) show NC gr 
 gr  gr showpage
end
%%EOF
