%!PS-Adobe-2.0 EPSF-2.0
%%BoundingBox:  0 0 567 384
%%Title: Tile0_Tile0/Distribution_Tile0_eta_9.eps: c1_n2
%%Creator: ROOT Version 6.22/08
%%CreationDate: Tue Aug  3 22:33:29 2021
%%DocumentNeededResources: ProcSet (FontSetInit)
%%EndComments
%%BeginProlog
80 dict begin
/s {stroke} def /l {lineto} def /m {moveto} def /t {translate} def
/r {rotate} def /rl {roll}  def /R {repeat} def
/d {rlineto} def /rm {rmoveto} def /gr {grestore} def /f {eofill} def
/c {setrgbcolor} def /black {0 setgray} def /sd {setdash} def
/cl {closepath} def /sf {scalefont setfont} def /lw {setlinewidth} def
/box {m dup 0 exch d exch 0 d 0 exch neg d cl} def
/NC{systemdict begin initclip end}def/C{NC box clip newpath}def
/bl {box s} def /bf {gsave box gsave f grestore 1 lw [] 0 sd s grestore} def /Y { 0 exch d} def /X { 0 d} def 
/K {{pop pop 0 moveto} exch kshow} bind def
/ita {/ang 15 def gsave [1 0 ang dup sin exch cos div 1 0 0] concat} def 
/mp {newpath /y exch def /x exch def} def
/side {[w .77 mul w .23 mul] .385 w mul sd w 0 l currentpoint t -144 r} def
/mr {mp x y w2 0 360 arc} def /m24 {mr s} def /m20 {mr f} def
/mb {mp x y w2 add m w2 neg 0 d 0 w neg d w 0 d 0 w d cl} def
/mt {mp x y w2 add m w2 neg w neg d w 0 d cl} def
/w4 {w 4 div} def
/w6 {w 6 div} def
/w8 {w 8 div} def
/m21 {mb f} def /m25 {mb s} def /m22 {mt f} def /m26{mt s} def
/m23 {mp x y w2 sub m w2 w d w neg 0 d cl f} def
/m27 {mp x y w2 add m w3 neg w2 neg d w3 w2 neg d w3 w2 d cl s} def
/m28 {mp x w2 sub y w2 sub w3 add m w3 0 d  0 w3 neg d w3 0 d 0 w3 d w3 0 d  0 w3 d w3 neg 0 d 0 w3 d w3 neg 0 d 0 w3 neg d w3 neg 0 d cl s } def
/m29 {mp gsave x w2 sub y w2 add w3 sub m currentpoint t 4 {side} repeat cl fill gr} def
/m30 {mp gsave x w2 sub y w2 add w3 sub m currentpoint t 4 {side} repeat cl s gr} def
/m31 {mp x y w2 sub m 0 w d x w2 sub y m w 0 d x w2 .707 mul sub y w2 .707 mul add m w 1.44 div w 1.44 div neg d x w2 .707 mul sub y w2 .707 mul sub m w 1.44 div w 1.44 div d s} def
/m32 {mp x y w2 sub m w2 w d w neg 0 d cl s} def
/m33 {mp x y w2 add m w3 neg w2 neg d w3 w2 neg d w3 w2 d cl f} def
/m34 {mp x w2 sub y w2 sub w3 add m w3 0 d  0 w3 neg d w3 0 d 0 w3 d w3 0 d  0 w3 d w3 neg 0 d 0 w3 d w3 neg 0 d 0 w3 neg d w3 neg 0 d cl f } def
/m35 {mp x y w2 add m w2 neg w2 neg d w2 w2 neg d w2 w2 d w2 neg w2 d x y w2 sub m 0 w d x w2 sub y m w 0 d s} def
/m36 {mb x w2 sub y w2 add m w w neg d x w2 sub y w2 sub m w w d s} def
/m37 {mp x y m w4 neg w2 d w4 neg w2 neg d w2 0 d  w4 neg w2 neg d w2 0 d w4 neg w2 d w2 0 d w4 neg w2 d w4 neg w2 neg d cl s} def
/m38 {mp x w4 sub y w2 add m w4 neg w4 neg d 0 w2 neg d w4 w4 neg d w2 0 d w4 w4 d 0 w2 d w4 neg w4 d w2 neg 0 d x y w2 sub m 0 w d x w2 sub y m w 0 d cl s} def
/m39 {mp x y m w4 neg w2 d w4 neg w2 neg d w2 0 d  w4 neg w2 neg d w2 0 d w4 neg w2 d w2 0 d w4 neg w2 d w4 neg w2 neg d cl f} def
/m40 {mp x y m w4 w2 d w4 w4 neg d w2 neg w4 neg d w2 w4 neg d w4 neg w4 neg d w4 neg w2 d w4 neg w2 neg d w4 neg w4 d w2 w4 d w2 neg w4 d w4 w4 d w4 w2 neg d cl s} def
/m41 {mp x y m w4 w2 d w4 w4 neg d w2 neg w4 neg d w2 w4 neg d w4 neg w4 neg d w4 neg w2 d w4 neg w2 neg d w4 neg w4 d w2 w4 d w2 neg w4 d w4 w4 d w4 w2 neg d cl f} def
/m42 {mp x y w2 add m w8 neg w2 -3 4 div mul d w2 -3 4 div mul w8 neg d w2 3 4 div mul w8 neg d w8 w2 -3 4 div mul d w8 w2 3 4 div mul d w2 3 4 div mul w8 d w2 -3 4 div mul w8 d w8 neg w2 3 4 div mul d cl s} def
/m43 {mp x y w2 add m w8 neg w2 -3 4 div mul d w2 -3 4 div mul w8 neg d w2 3 4 div mul w8 neg d w8 w2 -3 4 div mul d w8 w2 3 4 div mul d w2 3 4 div mul w8 d w2 -3 4 div mul w8 d w8 neg w2 3 4 div mul d cl f} def
/m44 {mp x y m w6 neg w2 d w2 2 3 div mul 0 d w6 neg w2 neg d w2 w6 d 0 w2 -2 3 div mul d w2 neg w6 d w6 w2 neg d w2 -2 3 div mul 0 d w6 w2 d w2 neg w6 neg d 0 w2 2 3 div mul d w2 w6 neg d cl s} def
/m45 {mp x y m w6 neg w2 d w2 2 3 div mul 0 d w6 neg w2 neg d w2 w6 d 0 w2 -2 3 div mul d w2 neg w6 d w6 w2 neg d w2 -2 3 div mul 0 d w6 w2 d w2 neg w6 neg d 0 w2 2 3 div mul d w2 w6 neg d cl f} def
/m46 {mp x y w4 add m w4 neg w4 d w4 neg w4 neg d  w4 w4 neg d w4 neg w4 neg d w4 w4 neg d w4 w4 d w4 w4 neg d w4 w4 d w4 neg w4 d w4 w4 d w4 neg w4 d w4 neg w4 neg d cl s} def
/m47 {mp x y w4 add m w4 neg w4 d w4 neg w4 neg d w4 w4 neg d w4 neg w4 neg d  w4 w4 neg d w4 w4 d w4 w4 neg d w4 w4 d w4 neg w4 d w4 w4 d w4 neg w4 d w4 neg w4 neg d cl f} def
/m48 {mp x y w4 add m w4 neg w4 d w4 neg w4 neg d w4 w4 neg d  w4 neg w4 neg d w4 w4 neg d w4 w4 d w4 w4 neg d w4 w4 d w4 neg w4 d w4 w4 d w4 neg w4 d w4 neg w4 neg d  w4 w4 neg d w4 neg w4 neg d w4 neg w4 d w4 w4 d cl f} def
/m49 {mp x w2 sub w3 add y w2 sub w3 add m  0 w3 neg d w3 0 d 0 w3 d w3 0 d 0 w3 d w3 neg 0 d 0 w3 d w3 neg 0 d 0 w3 neg d w3 neg 0 d 0 w3 neg d w3 0 d 0 w3 d w3 0 d 0 w3 neg d w3 neg 0 d cl f } def
/m2 {mp x y w2 sub m 0 w d x w2 sub y m w 0 d s} def
/m5 {mp x w2 .707 mul sub y w2 .707 mul sub m w 1.44 div w 1.44 div d x w2 .707 mul sub y w2 .707 mul add m w 1.44 div w 1.44 div neg d s} def
%%IncludeResource: ProcSet (FontSetInit)
%%IncludeResource: font Times-Roman
%%IncludeResource: font Times-Italic
%%IncludeResource: font Times-Bold
%%IncludeResource: font Times-BoldItalic
%%IncludeResource: font Helvetica
%%IncludeResource: font Helvetica-Oblique
%%IncludeResource: font Helvetica-Bold
%%IncludeResource: font Helvetica-BoldOblique
%%IncludeResource: font Courier
%%IncludeResource: font Courier-Oblique
%%IncludeResource: font Courier-Bold
%%IncludeResource: font Courier-BoldOblique
%%IncludeResource: font Symbol
%%IncludeResource: font ZapfDingbats
/reEncode {exch findfont dup length dict begin {1 index /FID eq  {pop pop} {def} ifelse } forall /Encoding exch def currentdict end dup /FontName get exch definefont pop } def [/Times-Bold /Times-Italic /Times-BoldItalic /Helvetica /Helvetica-Oblique
 /Helvetica-Bold /Helvetica-BoldOblique /Courier /Courier-Oblique /Courier-Bold /Courier-BoldOblique /Times-Roman /AvantGarde-Book /AvantGarde-BookOblique /AvantGarde-Demi /AvantGarde-DemiOblique /Bookman-Demi /Bookman-DemiItalic /Bookman-Light
 /Bookman-LightItalic /Helvetica-Narrow /Helvetica-Narrow-Bold /Helvetica-Narrow-BoldOblique /Helvetica-Narrow-Oblique /NewCenturySchlbk-Roman /NewCenturySchlbk-Bold /NewCenturySchlbk-BoldItalic /NewCenturySchlbk-Italic /Palatino-Bold
 /Palatino-BoldItalic /Palatino-Italic /Palatino-Roman ] {ISOLatin1Encoding reEncode } forall
%%EndProlog
%%BeginSetup
%%EndSetup
newpath  gsave  .25 .25 scale  gsave  0 0 t 1 0 0 c[  ] 0 sd 3 lw 1 1 1 c 2268 1538 0 0 bf black 1 1 1 c 1905 1276 295 231 bf black 1905 1276 295 231 bl 1 1 1 c 1905 1276 295 231 bf black 1905 1276 295 231 bl 0 0 1 c 6 lw 1 1 1 c 0 0 1 c 3 lw /w 31
 def /w2 {w 2 div} def /w3 {w 3 div} def 302 231 m20 6 lw 3 lw 315 234 m20 6 lw 3 lw 329 231 m20 6 lw 3 lw 342 234 m20 6 lw 3 lw 356 236 m20 6 lw 3 lw 370 237 m20 6 lw 3 lw 383 235 m20 6 lw 3 lw 397 237 m20 6 lw 3 lw 410 237 m20 6 lw 3 lw 424 239 m20
 6 lw 3 lw 438 240 m20 6 lw 3 lw 451 250 m20 6 lw 3 lw 465 251 m20 6 lw 3 lw 478 250 m20 6 lw 3 lw 492 262 m20 6 lw 3 lw 506 265 m20 6 lw 3 lw 519 272 m20 6 lw 3 lw 533 295 m20 6 lw 3 lw 547 364 m20 6 lw 560 546 m 3 Y s 560 575 m 2 Y s 3 lw 560 562
 m20 6 lw 574 639 m 4 Y s 574 669 m 5 Y s 3 lw 574 656 m20 6 lw 587 468 m 1 Y s 587 495 m s 3 lw 587 482 m20 6 lw 3 lw 601 431 m20 6 lw 3 lw 615 405 m20 6 lw 3 lw 628 411 m20 6 lw 3 lw 642 418 m20 6 lw 3 lw 655 428 m20 6 lw 3 lw 669 415 m20 6 lw 3 lw
 683 414 m20 6 lw 3 lw 696 404 m20 6 lw 3 lw 710 408 m20 6 lw 3 lw 723 415 m20 6 lw 3 lw 737 418 m20 6 lw 3 lw 751 409 m20 6 lw 3 lw 764 368 m20 6 lw 3 lw 778 378 m20 6 lw 3 lw 791 367 m20 6 lw 3 lw 805 394 m20 6 lw 3 lw 819 350 m20 6 lw 3 lw 832 355
 m20 6 lw 3 lw 846 349 m20 6 lw 3 lw 859 337 m20 6 lw 3 lw 873 350 m20 6 lw 3 lw 887 354 m20 6 lw 3 lw 900 335 m20 6 lw 3 lw 914 325 m20 6 lw 3 lw 927 318 m20 6 lw 3 lw 941 325 m20 6 lw 3 lw 955 311 m20 6 lw 3 lw 968 309 m20 6 lw 3 lw 982 311 m20 6
 lw 3 lw 996 296 m20 6 lw 3 lw 1009 292 m20 6 lw 3 lw 1023 305 m20 6 lw 3 lw 1036 293 m20 6 lw 3 lw 1050 291 m20 6 lw 3 lw 1064 286 m20 6 lw 3 lw 1077 279 m20 6 lw 3 lw 1091 281 m20 6 lw 3 lw 1104 274 m20 6 lw 3 lw 1118 272 m20 6 lw 3 lw 1132 273 m20
 6 lw 3 lw 1145 274 m20 6 lw 3 lw 1159 262 m20 6 lw 3 lw 1172 270 m20 6 lw 3 lw 1186 268 m20 6 lw 3 lw 1200 266 m20 6 lw 3 lw 1213 257 m20 6 lw 3 lw 1227 259 m20 6 lw 3 lw 1240 255 m20 6 lw 3 lw 1254 259 m20 6 lw 3 lw 1268 258 m20 6 lw 3 lw 1281 255
 m20 6 lw 3 lw 1295 258 m20 6 lw 3 lw 1308 250 m20 6 lw 3 lw 1322 247 m20 6 lw 3 lw 1336 253 m20 6 lw 3 lw 1349 250 m20 6 lw 3 lw 1363 253 m20 6 lw 3 lw 1377 248 m20 6 lw 3 lw 1390 247 m20 6 lw 3 lw 1404 245 m20 6 lw 3 lw 1417 244 m20 6 lw 3 lw 1431
 245 m20 6 lw 3 lw 1445 239 m20 6 lw 3 lw 1458 240 m20 6 lw 3 lw 1472 241 m20 6 lw 3 lw 1485 246 m20 6 lw 3 lw 1499 241 m20 6 lw 3 lw 1513 240 m20 6 lw 3 lw 1526 240 m20 6 lw 3 lw 1540 242 m20 6 lw 3 lw 1553 239 m20 6 lw 3 lw 1567 240 m20 6 lw 3 lw
 1581 242 m20 6 lw 3 lw 1594 238 m20 6 lw 3 lw 1608 239 m20 6 lw 3 lw 1621 236 m20 6 lw 3 lw 1635 239 m20 6 lw 3 lw 1649 236 m20 6 lw 3 lw 1662 234 m20 6 lw 3 lw 1676 234 m20 6 lw 3 lw 1689 236 m20 6 lw 3 lw 1703 238 m20 6 lw 3 lw 1717 234 m20 6 lw 3
 lw 1730 237 m20 6 lw 3 lw 1744 235 m20 6 lw 3 lw 1757 231 m20 6 lw 3 lw 1771 236 m20 6 lw 3 lw 1785 235 m20 6 lw 3 lw 1798 233 m20 6 lw 3 lw 1812 236 m20 6 lw 3 lw 1826 234 m20 6 lw 3 lw 1839 231 m20 6 lw 3 lw 1853 232 m20 6 lw 3 lw 1866 234 m20 6
 lw 3 lw 1880 233 m20 6 lw 3 lw 1894 231 m20 6 lw 3 lw 1907 231 m20 6 lw 3 lw 1921 232 m20 6 lw 3 lw 1934 232 m20 6 lw 3 lw 1948 232 m20 6 lw 3 lw 1962 233 m20 6 lw 3 lw 1975 231 m20 6 lw 3 lw 1989 231 m20 6 lw 3 lw 2002 233 m20 6 lw 3 lw 2016 232
 m20 6 lw 3 lw 2030 233 m20 6 lw 3 lw 2043 232 m20 6 lw 3 lw 2057 232 m20 6 lw 3 lw 2070 232 m20 6 lw 3 lw 2084 231 m20 6 lw 3 lw 2098 231 m20 6 lw 3 lw 2111 231 m20 6 lw 3 lw 2125 231 m20 6 lw 3 lw 2138 231 m20 6 lw 3 lw 2152 231 m20 6 lw 3 lw 2166
 231 m20 6 lw 3 lw 2179 231 m20 6 lw 3 lw 2193 231 m20 6 lw black 3 lw 295 231 m 1905 X s 295 269 m -38 Y s 349 250 m -19 Y s 404 250 m -19 Y s 458 250 m -19 Y s 513 250 m -19 Y s 567 269 m -38 Y s 621 250 m -19 Y s 676 250 m -19 Y s 730 250 m -19 Y
 s 785 250 m -19 Y s 839 269 m -38 Y s 893 250 m -19 Y s 948 250 m -19 Y s 1002 250 m -19 Y s 1057 250 m -19 Y s 1111 269 m -38 Y s 1166 250 m -19 Y s 1220 250 m -19 Y s 1274 250 m -19 Y s 1329 250 m -19 Y s 1383 269 m -38 Y s 1438 250 m -19 Y s 1492
 250 m -19 Y s 1547 250 m -19 Y s 1601 250 m -19 Y s 1655 269 m -38 Y s 1710 250 m -19 Y s 1764 250 m -19 Y s 1819 250 m -19 Y s 1873 250 m -19 Y s 1928 269 m -38 Y s 1982 250 m -19 Y s 2036 250 m -19 Y s 2091 250 m -19 Y s 2145 250 m -19 Y s 2200
 269 m -38 Y s
 gsave  2268 1538 0 0 C 267.173 162.911 t 0 r /Helvetica findfont 71.6807 sf 0 0 m (0.1) show NC gr 
 gsave  2268 1538 0 0 C 231.333 162.911 t 0 r /Symbol findfont 71.6807 sf 0 0 m (-) show NC gr 
 gsave  2268 1538 0 0 C 547.38 162.911 t 0 r /Helvetica findfont 71.6807 sf 0 0 m (0) show NC gr 
 gsave  2268 1538 0 0 C 795.004 162.911 t 0 r /Helvetica findfont 71.6807 sf 0 0 m (0.1) show NC gr 
 gsave  2268 1538 0 0 C 1062.18 162.911 t 0 r /Helvetica findfont 71.6807 sf 0 0 m (0.2) show NC gr 
 gsave  2268 1538 0 0 C 1332.61 162.911 t 0 r /Helvetica findfont 71.6807 sf 0 0 m (0.3) show NC gr 
 gsave  2268 1538 0 0 C 1606.3 162.911 t 0 r /Helvetica findfont 71.6807 sf 0 0 m (0.4) show NC gr 
 gsave  2268 1538 0 0 C 1876.73 162.911 t 0 r /Helvetica findfont 71.6807 sf 0 0 m (0.5) show NC gr 
 gsave  2268 1538 0 0 C 2150.42 162.911 t 0 r /Helvetica findfont 71.6807 sf 0 0 m (0.6) show NC gr 
 gsave  2268 1538 0 0 C 2095.03 19.5493 t 0 r /Helvetica findfont 48.8732 sf 0 0 m (Tile0) show NC gr 
 gsave  2268 1538 0 0 C 2075.48 42.3568 t 0 r /Helvetica findfont 71.6807 sf 0 0 m (f) show NC gr  295 1507 m 1905 X s 295 1468 m 39 Y s 349 1488 m 19 Y s 404 1488 m 19 Y s 458 1488 m 19 Y s 513 1488 m 19 Y s 567 1468 m 39 Y s 621 1488 m 19 Y s 676
 1488 m 19 Y s 730 1488 m 19 Y s 785 1488 m 19 Y s 839 1468 m 39 Y s 893 1488 m 19 Y s 948 1488 m 19 Y s 1002 1488 m 19 Y s 1057 1488 m 19 Y s 1111 1468 m 39 Y s 1166 1488 m 19 Y s 1220 1488 m 19 Y s 1274 1488 m 19 Y s 1329 1488 m 19 Y s 1383 1468 m
 39 Y s 1438 1488 m 19 Y s 1492 1488 m 19 Y s 1547 1488 m 19 Y s 1601 1488 m 19 Y s 1655 1468 m 39 Y s 1710 1488 m 19 Y s 1764 1488 m 19 Y s 1819 1488 m 19 Y s 1873 1488 m 19 Y s 1928 1468 m 39 Y s 1982 1488 m 19 Y s 2036 1488 m 19 Y s 2091 1488 m 19
 Y s 2145 1488 m 19 Y s 2200 1468 m 39 Y s 295 231 m 1276 Y s 351 231 m -56 X s 323 265 m -28 X s 323 300 m -28 X s 323 335 m -28 X s 351 369 m -56 X s 323 404 m -28 X s 323 439 m -28 X s 323 473 m -28 X s 351 508 m -56 X s 323 543 m -28 X s 323 577
 m -28 X s 323 612 m -28 X s 351 647 m -56 X s 323 681 m -28 X s 323 716 m -28 X s 323 750 m -28 X s 351 785 m -56 X s 323 820 m -28 X s 323 854 m -28 X s 323 889 m -28 X s 351 924 m -56 X s 323 958 m -28 X s 323 993 m -28 X s 323 1028 m -28 X s 351
 1062 m -56 X s 323 1097 m -28 X s 323 1132 m -28 X s 323 1166 m -28 X s 351 1201 m -56 X s 323 1236 m -28 X s 323 1270 m -28 X s 323 1305 m -28 X s 351 1340 m -56 X s 323 1374 m -28 X s 323 1409 m -28 X s 323 1444 m -28 X s 351 1478 m -56 X s 351
 1478 m -56 X s
 gsave  2268 1538 0 0 C 244.366 205.267 t 0 r /Helvetica findfont 71.6807 sf 0 0 m (0) show NC gr 
 gsave  2268 1538 0 0 C 146.62 345.371 t 0 r /Helvetica findfont 71.6807 sf 0 0 m (0.02) show NC gr 
 gsave  2268 1538 0 0 C 146.62 482.216 t 0 r /Helvetica findfont 71.6807 sf 0 0 m (0.04) show NC gr 
 gsave  2268 1538 0 0 C 146.62 622.319 t 0 r /Helvetica findfont 71.6807 sf 0 0 m (0.06) show NC gr 
 gsave  2268 1538 0 0 C 146.62 759.164 t 0 r /Helvetica findfont 71.6807 sf 0 0 m (0.08) show NC gr 
 gsave  2268 1538 0 0 C 198.751 899.267 t 0 r /Helvetica findfont 71.6807 sf 0 0 m (0.1) show NC gr 
 gsave  2268 1538 0 0 C 146.62 1039.37 t 0 r /Helvetica findfont 71.6807 sf 0 0 m (0.12) show NC gr 
 gsave  2268 1538 0 0 C 146.62 1176.21 t 0 r /Helvetica findfont 71.6807 sf 0 0 m (0.14) show NC gr 
 gsave  2268 1538 0 0 C 146.62 1316.32 t 0 r /Helvetica findfont 71.6807 sf 0 0 m (0.16) show NC gr 
 gsave  2268 1538 0 0 C 146.62 1453.16 t 0 r /Helvetica findfont 71.6807 sf 0 0 m (0.18) show NC gr 
 gsave  2268 1538 0 0 C 156.394 925.333 t 90 r /Helvetica findfont 71.6807 sf 0 0 m (Normalized entries) show NC gr  2200 231 m 1276 Y s 2143 231 m 57 X s 2171 265 m 29 X s 2171 300 m 29 X s 2171 335 m 29 X s 2143 369 m 57 X s 2171 404 m 29 X s 2171
 439 m 29 X s 2171 473 m 29 X s 2143 508 m 57 X s 2171 543 m 29 X s 2171 577 m 29 X s 2171 612 m 29 X s 2143 647 m 57 X s 2171 681 m 29 X s 2171 716 m 29 X s 2171 750 m 29 X s 2143 785 m 57 X s 2171 820 m 29 X s 2171 854 m 29 X s 2171 889 m 29 X s
 2143 924 m 57 X s 2171 958 m 29 X s 2171 993 m 29 X s 2171 1028 m 29 X s 2143 1062 m 57 X s 2171 1097 m 29 X s 2171 1132 m 29 X s 2171 1166 m 29 X s 2143 1201 m 57 X s 2171 1236 m 29 X s 2171 1270 m 29 X s 2171 1305 m 29 X s 2143 1340 m 57 X s 2171
 1374 m 29 X s 2171 1409 m 29 X s 2171 1444 m 29 X s 2143 1478 m 57 X s 2143 1478 m 57 X s 1 0 0 c 6 lw 1 1 1 c 1 0 0 c 3 lw 383 231 m20 6 lw 3 lw 410 231 m20 6 lw 3 lw 438 231 m20 6 lw 3 lw 451 231 m20 6 lw 3 lw 465 231 m20 6 lw 3 lw 478 231 m20 6
 lw 3 lw 492 231 m20 6 lw 3 lw 506 232 m20 6 lw 3 lw 519 233 m20 6 lw 3 lw 533 236 m20 6 lw 3 lw 547 244 m20 6 lw 3 lw 560 283 m20 6 lw 3 lw 574 334 m20 6 lw 3 lw 587 324 m20 6 lw 3 lw 601 340 m20 6 lw 3 lw 615 369 m20 6 lw 3 lw 628 382 m20 6 lw 3 lw
 642 395 m20 6 lw 3 lw 655 398 m20 6 lw 3 lw 669 422 m20 6 lw 3 lw 683 425 m20 6 lw 3 lw 696 426 m20 6 lw 3 lw 710 440 m20 6 lw 3 lw 723 428 m20 6 lw 3 lw 737 442 m20 6 lw 3 lw 751 439 m20 6 lw 3 lw 764 436 m20 6 lw 3 lw 778 434 m20 6 lw 3 lw 791 436
 m20 6 lw 3 lw 805 426 m20 6 lw 3 lw 819 403 m20 6 lw 3 lw 832 400 m20 6 lw 3 lw 846 400 m20 6 lw 3 lw 859 397 m20 6 lw 3 lw 873 387 m20 6 lw 3 lw 887 380 m20 6 lw 3 lw 900 378 m20 6 lw 3 lw 914 363 m20 6 lw 3 lw 927 361 m20 6 lw 3 lw 941 359 m20 6
 lw 3 lw 955 359 m20 6 lw 3 lw 968 339 m20 6 lw 3 lw 982 337 m20 6 lw 3 lw 996 333 m20 6 lw 3 lw 1009 333 m20 6 lw 3 lw 1023 325 m20 6 lw 3 lw 1036 317 m20 6 lw 3 lw 1050 312 m20 6 lw 3 lw 1064 307 m20 6 lw 3 lw 1077 304 m20 6 lw 3 lw 1091 306 m20 6
 lw 3 lw 1104 297 m20 6 lw 3 lw 1118 292 m20 6 lw 3 lw 1132 289 m20 6 lw 3 lw 1145 285 m20 6 lw 3 lw 1159 285 m20 6 lw 3 lw 1172 279 m20 6 lw 3 lw 1186 278 m20 6 lw 3 lw 1200 270 m20 6 lw 3 lw 1213 271 m20 6 lw 3 lw 1227 271 m20 6 lw 3 lw 1240 267
 m20 6 lw 3 lw 1254 266 m20 6 lw 3 lw 1268 263 m20 6 lw 3 lw 1281 263 m20 6 lw 3 lw 1295 256 m20 6 lw 3 lw 1308 262 m20 6 lw 3 lw 1322 257 m20 6 lw 3 lw 1336 259 m20 6 lw 3 lw 1349 253 m20 6 lw 3 lw 1363 251 m20 6 lw 3 lw 1377 253 m20 6 lw 3 lw 1390
 250 m20 6 lw 3 lw 1404 249 m20 6 lw 3 lw 1417 247 m20 6 lw 3 lw 1431 247 m20 6 lw 3 lw 1445 247 m20 6 lw 3 lw 1458 243 m20 6 lw 3 lw 1472 244 m20 6 lw 3 lw 1485 243 m20 6 lw 3 lw 1499 243 m20 6 lw 3 lw 1513 242 m20 6 lw 3 lw 1526 239 m20 6 lw 3 lw
 1540 242 m20 6 lw 3 lw 1553 241 m20 6 lw 3 lw 1567 241 m20 6 lw 3 lw 1581 240 m20 6 lw 3 lw 1594 237 m20 6 lw 3 lw 1608 240 m20 6 lw 3 lw 1621 238 m20 6 lw 3 lw 1635 238 m20 6 lw 3 lw 1649 237 m20 6 lw 3 lw 1662 236 m20 6 lw 3 lw 1676 235 m20 6 lw 3
 lw 1689 236 m20 6 lw 3 lw 1703 235 m20 6 lw 3 lw 1717 236 m20 6 lw 3 lw 1730 235 m20 6 lw 3 lw 1744 234 m20 6 lw 3 lw 1757 235 m20 6 lw 3 lw 1771 235 m20 6 lw 3 lw 1785 235 m20 6 lw 3 lw 1798 233 m20 6 lw 3 lw 1812 234 m20 6 lw 3 lw 1826 235 m20 6
 lw 3 lw 1839 234 m20 6 lw 3 lw 1853 233 m20 6 lw 3 lw 1866 234 m20 6 lw 3 lw 1880 233 m20 6 lw 3 lw 1894 233 m20 6 lw 3 lw 1907 233 m20 6 lw 3 lw 1921 233 m20 6 lw 3 lw 1934 232 m20 6 lw 3 lw 1948 232 m20 6 lw 3 lw 1962 232 m20 6 lw 3 lw 1975 232
 m20 6 lw 3 lw 1989 232 m20 6 lw 3 lw 2002 233 m20 6 lw 3 lw 2016 231 m20 6 lw 3 lw 2030 232 m20 6 lw 3 lw 2043 232 m20 6 lw 3 lw 2057 232 m20 6 lw 3 lw 2070 231 m20 6 lw 3 lw 2084 232 m20 6 lw 3 lw 2098 231 m20 6 lw 3 lw 2111 232 m20 6 lw 3 lw 2125
 232 m20 6 lw 3 lw 2138 232 m20 6 lw 3 lw 2152 231 m20 6 lw 3 lw 2166 231 m20 6 lw 3 lw 2179 231 m20 6 lw 3 lw 2193 231 m20 6 lw black 1 1 1 c black 3 lw 533 231 m20 6 lw 3 lw 547 231 m20 6 lw 3 lw 560 232 m20 6 lw 3 lw 574 242 m20 6 lw 3 lw 587 252
 m20 6 lw 3 lw 601 261 m20 6 lw 3 lw 615 274 m20 6 lw 3 lw 628 281 m20 6 lw 3 lw 642 290 m20 6 lw 3 lw 655 307 m20 6 lw 3 lw 669 327 m20 6 lw 3 lw 683 342 m20 6 lw 3 lw 696 354 m20 6 lw 3 lw 710 371 m20 6 lw 3 lw 723 384 m20 6 lw 3 lw 737 394 m20 6
 lw 3 lw 751 407 m20 6 lw 3 lw 764 424 m20 6 lw 3 lw 778 414 m20 6 lw 3 lw 791 429 m20 6 lw 3 lw 805 425 m20 6 lw 3 lw 819 435 m20 6 lw 3 lw 832 431 m20 6 lw 3 lw 846 432 m20 6 lw 3 lw 859 411 m20 6 lw 3 lw 873 419 m20 6 lw 3 lw 887 408 m20 6 lw 3 lw
 900 408 m20 6 lw 3 lw 914 420 m20 6 lw 3 lw 927 394 m20 6 lw 3 lw 941 395 m20 6 lw 3 lw 955 393 m20 6 lw 3 lw 968 394 m20 6 lw 3 lw 982 369 m20 6 lw 3 lw 996 372 m20 6 lw 3 lw 1009 368 m20 6 lw 3 lw 1023 366 m20 6 lw 3 lw 1036 352 m20 6 lw 3 lw 1050
 359 m20 6 lw 3 lw 1064 345 m20 6 lw 3 lw 1077 337 m20 6 lw 3 lw 1091 331 m20 6 lw 3 lw 1104 325 m20 6 lw 3 lw 1118 312 m20 6 lw 3 lw 1132 321 m20 6 lw 3 lw 1145 307 m20 6 lw 3 lw 1159 309 m20 6 lw 3 lw 1172 303 m20 6 lw 3 lw 1186 302 m20 6 lw 3 lw
 1200 296 m20 6 lw 3 lw 1213 300 m20 6 lw 3 lw 1227 280 m20 6 lw 3 lw 1240 279 m20 6 lw 3 lw 1254 285 m20 6 lw 3 lw 1268 284 m20 6 lw 3 lw 1281 278 m20 6 lw 3 lw 1295 270 m20 6 lw 3 lw 1308 275 m20 6 lw 3 lw 1322 262 m20 6 lw 3 lw 1336 262 m20 6 lw 3
 lw 1349 266 m20 6 lw 3 lw 1363 262 m20 6 lw 3 lw 1377 258 m20 6 lw 3 lw 1390 258 m20 6 lw 3 lw 1404 254 m20 6 lw 3 lw 1417 252 m20 6 lw 3 lw 1431 251 m20 6 lw 3 lw 1445 248 m20 6 lw 3 lw 1458 245 m20 6 lw 3 lw 1472 249 m20 6 lw 3 lw 1485 247 m20 6
 lw 3 lw 1499 253 m20 6 lw 3 lw 1513 247 m20 6 lw 3 lw 1526 246 m20 6 lw 3 lw 1540 243 m20 6 lw 3 lw 1553 241 m20 6 lw 3 lw 1567 243 m20 6 lw 3 lw 1581 241 m20 6 lw 3 lw 1594 240 m20 6 lw 3 lw 1608 243 m20 6 lw 3 lw 1621 237 m20 6 lw 3 lw 1635 238
 m20 6 lw 3 lw 1649 240 m20 6 lw 3 lw 1662 239 m20 6 lw 3 lw 1676 238 m20 6 lw 3 lw 1689 236 m20 6 lw 3 lw 1703 236 m20 6 lw 3 lw 1717 236 m20 6 lw 3 lw 1730 236 m20 6 lw 3 lw 1744 237 m20 6 lw 3 lw 1757 234 m20 6 lw 3 lw 1771 236 m20 6 lw 3 lw 1785
 236 m20 6 lw 3 lw 1798 235 m20 6 lw 3 lw 1812 235 m20 6 lw 3 lw 1826 234 m20 6 lw 3 lw 1839 233 m20 6 lw 3 lw 1853 235 m20 6 lw 3 lw 1866 233 m20 6 lw 3 lw 1880 235 m20 6 lw 3 lw 1894 234 m20 6 lw 3 lw 1907 233 m20 6 lw 3 lw 1921 234 m20 6 lw 3 lw
 1934 233 m20 6 lw 3 lw 1948 232 m20 6 lw 3 lw 1962 233 m20 6 lw 3 lw 1975 232 m20 6 lw 3 lw 1989 232 m20 6 lw 3 lw 2002 233 m20 6 lw 3 lw 2016 232 m20 6 lw 3 lw 2030 232 m20 6 lw 3 lw 2043 233 m20 6 lw 3 lw 2057 231 m20 6 lw 3 lw 2070 232 m20 6 lw 3
 lw 2084 232 m20 6 lw 3 lw 2098 232 m20 6 lw 3 lw 2111 231 m20 6 lw 3 lw 2125 231 m20 6 lw 3 lw 2138 231 m20 6 lw 3 lw 2152 231 m20 6 lw 3 lw 2166 231 m20 6 lw 3 lw 2179 231 m20 6 lw 3 lw 2193 231 m20 6 lw 0 0.6 0 c 1 1 1 c 0 0.6 0 c 3 lw 560 231 m20
 6 lw 3 lw 574 239 m20 6 lw 3 lw 587 247 m20 6 lw 3 lw 601 254 m20 6 lw 3 lw 615 259 m20 6 lw 3 lw 628 265 m20 6 lw 3 lw 642 281 m20 6 lw 3 lw 655 284 m20 6 lw 3 lw 669 300 m20 6 lw 3 lw 683 305 m20 6 lw 3 lw 696 320 m20 6 lw 3 lw 710 328 m20 6 lw 3
 lw 723 344 m20 6 lw 3 lw 737 358 m20 6 lw 3 lw 751 375 m20 6 lw 3 lw 764 377 m20 6 lw 3 lw 778 378 m20 6 lw 3 lw 791 401 m20 6 lw 3 lw 805 396 m20 6 lw 3 lw 819 403 m20 6 lw 3 lw 832 415 m20 6 lw 3 lw 846 411 m20 6 lw 3 lw 859 421 m20 6 lw 3 lw 873
 413 m20 6 lw 3 lw 887 412 m20 6 lw 3 lw 900 414 m20 6 lw 3 lw 914 408 m20 6 lw 3 lw 927 406 m20 6 lw 3 lw 941 403 m20 6 lw 3 lw 955 397 m20 6 lw 3 lw 968 399 m20 6 lw 3 lw 982 388 m20 6 lw 3 lw 996 393 m20 6 lw 3 lw 1009 382 m20 6 lw 3 lw 1023 380
 m20 6 lw 3 lw 1036 371 m20 6 lw 3 lw 1050 361 m20 6 lw 3 lw 1064 359 m20 6 lw 3 lw 1077 354 m20 6 lw 3 lw 1091 353 m20 6 lw 3 lw 1104 347 m20 6 lw 3 lw 1118 345 m20 6 lw 3 lw 1132 337 m20 6 lw 3 lw 1145 330 m20 6 lw 3 lw 1159 321 m20 6 lw 3 lw 1172
 322 m20 6 lw 3 lw 1186 316 m20 6 lw 3 lw 1200 307 m20 6 lw 3 lw 1213 307 m20 6 lw 3 lw 1227 304 m20 6 lw 3 lw 1240 299 m20 6 lw 3 lw 1254 295 m20 6 lw 3 lw 1268 291 m20 6 lw 3 lw 1281 284 m20 6 lw 3 lw 1295 290 m20 6 lw 3 lw 1308 278 m20 6 lw 3 lw
 1322 274 m20 6 lw 3 lw 1336 269 m20 6 lw 3 lw 1349 270 m20 6 lw 3 lw 1363 268 m20 6 lw 3 lw 1377 268 m20 6 lw 3 lw 1390 264 m20 6 lw 3 lw 1404 265 m20 6 lw 3 lw 1417 260 m20 6 lw 3 lw 1431 255 m20 6 lw 3 lw 1445 256 m20 6 lw 3 lw 1458 254 m20 6 lw 3
 lw 1472 252 m20 6 lw 3 lw 1485 251 m20 6 lw 3 lw 1499 248 m20 6 lw 3 lw 1513 247 m20 6 lw 3 lw 1526 247 m20 6 lw 3 lw 1540 244 m20 6 lw 3 lw 1553 245 m20 6 lw 3 lw 1567 243 m20 6 lw 3 lw 1581 244 m20 6 lw 3 lw 1594 243 m20 6 lw 3 lw 1608 247 m20 6
 lw 3 lw 1621 240 m20 6 lw 3 lw 1635 240 m20 6 lw 3 lw 1649 241 m20 6 lw 3 lw 1662 240 m20 6 lw 3 lw 1676 238 m20 6 lw 3 lw 1689 239 m20 6 lw 3 lw 1703 238 m20 6 lw 3 lw 1717 237 m20 6 lw 3 lw 1730 235 m20 6 lw 3 lw 1744 236 m20 6 lw 3 lw 1757 236
 m20 6 lw 3 lw 1771 236 m20 6 lw 3 lw 1785 237 m20 6 lw 3 lw 1798 234 m20 6 lw 3 lw 1812 236 m20 6 lw 3 lw 1826 234 m20 6 lw 3 lw 1839 233 m20 6 lw 3 lw 1853 233 m20 6 lw 3 lw 1866 233 m20 6 lw 3 lw 1880 234 m20 6 lw 3 lw 1894 233 m20 6 lw 3 lw 1907
 234 m20 6 lw 3 lw 1921 234 m20 6 lw 3 lw 1934 233 m20 6 lw 3 lw 1948 232 m20 6 lw 3 lw 1962 232 m20 6 lw 3 lw 1975 232 m20 6 lw 3 lw 1989 233 m20 6 lw 3 lw 2002 232 m20 6 lw 3 lw 2016 233 m20 6 lw 3 lw 2030 232 m20 6 lw 3 lw 2043 232 m20 6 lw 3 lw
 2057 232 m20 6 lw 3 lw 2070 232 m20 6 lw 3 lw 2084 232 m20 6 lw 3 lw 2098 232 m20 6 lw 3 lw 2111 232 m20 6 lw 3 lw 2125 232 m20 6 lw 3 lw 2138 231 m20 6 lw 3 lw 2152 231 m20 6 lw 3 lw 2166 231 m20 6 lw 3 lw 2179 231 m20 6 lw 3 lw 2193 231 m20 6 lw
 black
 gsave  2268 1538 0 0 C 1648.66 1394.52 t 0 r /Helvetica-Bold findfont 48.8732 sf 0 0 m ( < 40 GeV) show NC gr 
 gsave  2268 1538 0 0 C 1573.72 1420.58 t 0 r /Helvetica-Bold findfont 32.5821 sf 0 0 m (truth) show NC gr 
 gsave  2268 1538 0 0 C 1573.72 1368.45 t 0 r /Helvetica-Bold findfont 32.5821 sf 0 0 m (T) show NC gr 
 gsave  2268 1538 0 0 C 1433.61 1394.52 t 0 r /Helvetica-Bold findfont 48.8732 sf 0 0 m (30 < p) show NC gr  0 0 1 c 1275 1413 m 131 X s 3 lw 1341 1413 m20 6 lw black
 gsave  2268 1538 0 0 C 1648.66 1296.77 t 0 r /Helvetica-Bold findfont 48.8732 sf 0 0 m ( < 100 GeV) show NC gr 
 gsave  2268 1538 0 0 C 1573.72 1322.83 t 0 r /Helvetica-Bold findfont 32.5821 sf 0 0 m (truth) show NC gr 
 gsave  2268 1538 0 0 C 1573.72 1270.7 t 0 r /Helvetica-Bold findfont 32.5821 sf 0 0 m (T) show NC gr 
 gsave  2268 1538 0 0 C 1433.61 1296.77 t 0 r /Helvetica-Bold findfont 48.8732 sf 0 0 m (80 < p) show NC gr  1 0 0 c 1275 1317 m 131 X s 3 lw 1341 1317 m20 6 lw black
 gsave  2268 1538 0 0 C 1674.72 1202.28 t 0 r /Helvetica-Bold findfont 48.8732 sf 0 0 m ( < 400 GeV) show NC gr 
 gsave  2268 1538 0 0 C 1599.78 1228.35 t 0 r /Helvetica-Bold findfont 32.5821 sf 0 0 m (truth) show NC gr 
 gsave  2268 1538 0 0 C 1599.78 1176.21 t 0 r /Helvetica-Bold findfont 32.5821 sf 0 0 m (T) show NC gr 
 gsave  2268 1538 0 0 C 1433.61 1202.28 t 0 r /Helvetica-Bold findfont 48.8732 sf 0 0 m (350 < p) show NC gr  1275 1221 m 131 X s 3 lw 1341 1221 m20 6 lw
 gsave  2268 1538 0 0 C 1704.05 1104.53 t 0 r /Helvetica-Bold findfont 48.8732 sf 0 0 m ( < 1200 GeV) show NC gr 
 gsave  2268 1538 0 0 C 1629.11 1130.6 t 0 r /Helvetica-Bold findfont 32.5821 sf 0 0 m (truth) show NC gr 
 gsave  2268 1538 0 0 C 1629.11 1078.47 t 0 r /Helvetica-Bold findfont 32.5821 sf 0 0 m (T) show NC gr 
 gsave  2268 1538 0 0 C 1433.61 1104.53 t 0 r /Helvetica-Bold findfont 48.8732 sf 0 0 m (1000 < p) show NC gr  0 0.6 0 c 1275 1125 m 131 X s 3 lw 1341 1125 m20 6 lw black
 gsave  2268 1538 0 0 C 384.469 1417.32 t 0 r /Helvetica-BoldOblique findfont 61.9061 sf 0 0 m (ATLAS) show NC gr 
 gsave  2268 1538 0 0 C 632.093 1417.32 t 0 r /Helvetica findfont 58.6478 sf 0 0 m (Simulation Internal) show NC gr 
 gsave  2268 1538 0 0 C 746.131 1339.13 t 0 r /Helvetica findfont 58.6478 sf 0 0 m ( = 13 TeV) show NC gr 
 gsave  2268 1538 0 0 C 716.807 1339.13 t 0 r /Helvetica findfont 58.6478 sf 0 0 m (s) show NC gr  697 1372 m 7 -36 d s 3 lw 704 1336 m 6 52 d s 710 1388 m 36 X s
 gsave  2268 1538 0 0 C 384.469 1339.13 t 0 r /Helvetica findfont 58.6478 sf 0 0 m (Pythia Dijet ) show NC gr 
 gsave  2268 1538 0 0 C 384.469 1264.19 t 0 r /Helvetica findfont 58.6478 sf 0 0 m (EM+JES) show NC gr 
 gsave  2268 1538 0 0 C 938.365 1185.99 t 0 r /Helvetica findfont 58.6478 sf 0 0 m (| < 1.0) show NC gr 
 gsave  2268 1538 0 0 C 905.783 1185.99 t 0 r /Symbol findfont 58.6478 sf 0 0 m (h) show NC gr 
 gsave  2268 1538 0 0 C 720.065 1185.99 t 0 r /Helvetica findfont 58.6478 sf 0 0 m (, 0.9 < |) show NC gr 
 gsave  2268 1538 0 0 C 707.032 1169.7 t 0 r /Helvetica findfont 39.0986 sf 0 0 m (t) show NC gr 
 gsave  2268 1538 0 0 C 671.192 1185.99 t 0 r /Helvetica-Oblique findfont 58.6478 sf 0 0 m (k) show NC gr 
 gsave  2268 1538 0 0 C 430.084 1185.99 t 0 r /Helvetica findfont 58.6478 sf 0 0 m (=0.4 anti\255) show NC gr 
 gsave  2268 1538 0 0 C 384.469 1185.99 t 0 r /Helvetica-Oblique findfont 58.6478 sf 0 0 m (R) show NC gr 
 gr  gr showpage
end
%%EOF
